<?xml version="1.0" encoding="UTF-8" standalone="no"?>
<!-- Created with Inkscape (http://www.inkscape.org/) -->
<svg id="svg1014" xmlns:rdf="http://www.w3.org/1999/02/22-rdf-syntax-ns#" xmlns="http://www.w3.org/2000/svg" height="211.67mm" viewBox="0 0 64.372361 211.66669" width="64.372mm" version="1.1" xmlns:cc="http://creativecommons.org/ns#" xmlns:dc="http://purl.org/dc/elements/1.1/"><defs id="defs13"><clipPath id="clipPath4585" clipPathUnits="userSpaceOnUse"><rect id="rect4587" style="opacity:.9;stroke-linejoin:round;fill-rule:evenodd;stroke:#00a8fe;stroke-linecap:round;stroke-width:.8355;fill:#acdffd" transform="scale(-1,1)" height="72.554" width="22.065" y="167.46" x="-133.16"/></clipPath></defs><metadata id="metadata1011"><rdf:RDF><cc:Work rdf:about=""><dc:format>image/svg+xml</dc:format><dc:type rdf:resource="http://purl.org/dc/dcmitype/StillImage"/><dc:title/></cc:Work></rdf:RDF></metadata><g id="layer1" transform="matrix(-2.9174 0 0 2.9174 388.48 -488.55)" clip-path="url(#clipPath4585)"><g id="g1090" transform="translate(-3.7714e-6)"><path id="path1041" style="stroke-width:.26795;fill:#97a0a2" d="m104.27 249.66c-3.6334-3.2738-9.2716-1.1851-13.03-4.0909-2.2696-3.474-4.1054-8.5459-3.488-12.404 2.4989-4.8766 4.8583-9.8384 7.1006-14.823 2.0236-3.3459 6.0648-4.1717 9.6053-4.7856 4.2868-1.642 3.8219-8.157 8.3789-9.3735 2.9484-1.0433 6.7043 6.3237 2.9095 5.4627-3.15-2.3715-1.6365-5.9064-.0904-8.6366.19675-4.0033-4.0426-6.8876-4.0762-11.01.28587-4.9432 2.2054-9.6651 2.9642-14.561.79493-3.1912-.36118-7.9312 3.7865-9.1257 3.6219-.99753 7.3268.281 11.002.28095 2.7751.26137 5.5679.75916 8.1241 1.9115.12216 3.965-4.1481 6.9984-2.348 11.197.17782 10.53 2.2858 21.035 1.0023 31.573-.51748 8.9809 1.482 17.842 1.8326 26.77-.69167 5.5269-6.9009.47335-10.005 2.6399-1.9398 3.1847-4.8081 7.13-9.2416 6.0867-1.7075-1.0066-8.1162 2.0608-3.7989-.0211-3.5122 1.0248-7.0258 2.1752-10.628 2.9104z"/><path id="path1037" style="stroke-width:.26795;fill:#727d81" d="m108.96 243.13c1.0638-3.2347 5.1474-1.4424 5.9945-.0191 2.9584-1.2823 9.2658.86377 5.5329 4.4587-2.9915 2.1212-7.2821 2.7596-10.642 1.2163-1.9956-1.1742-2.6997-3.9678-.88557-5.6559zm-5.6899 6.3116c-6.7341-1.1402-12.871-6.2559-14.774-12.858-.71813-4.0133 1.6548-7.5965 3.6792-10.811.84286-3.2132 3.0146-9.9795 7.3839-6.6295 1.1783 1.3802 4.4247 5.0823 5.2137 3.5945-2.4321-1.2078-7.7339-6.209-2.4802-7.1106 3.8227-.60702 4.7457-4.8275 7.0119-7.2026 3.9381-2.3545 5.8779 3.0976 9.2082 3.4956 1.4472.33161 3.2127-.70818.59934-.5377-2.7319-.34449-7.3418-3.1782-6.5412-5.7809 4.2624-1.0989 4.8879-7.359 1.3962-9.7286-3.3187-3.2521.66323-8.2262 4.6042-6.1403 1.7838.19283 4.2084-1.8676.97122-1.1391-4.2646 2.0821-8.2408-3.102-5.2876-6.6317 1.0413-3.5346.0619-9.0228 2.3287-11.331 2.5171-.5739-.0978-6.2759 3.9348-4.2177 4.8154-.0932 9.543 1.1467 14.288 1.6848 4.0343 2.5102-1.9973 7.207.18126 10.869.0341 2.7078-.39665 7.3616-4.0102 7.1831-1.7179.0669-4.2273-4.2488-4.9102-2.9823 1.3754 3.3471 5.6438 5.3422 8.4298 4.1101 2.0091 4.048.52118 8.6702 1.369 12.94-.14986 7.3738-.31389 14.748-.35589 22.123-1.6342-.59627-5.9533 1.8827-1.9807 1.7869 5.1342 1.2149 2.6115 7.7787 4.1911 11.411.76234 3.7362-3.1287 6.395-6.1342 3.9748-3.5265-.54092-5.6759 5.9507-9.0128 3.0979-1.3437-3.2816-4.968-3.8412-7.7582-2.8859-5.0325-.68426-9.1797 3.9805-9.7863 8.6628-.29407.65888-1.0159 1.1948-1.7586 1.0528zm12.483-11.003c-1.3791-.76564.0843 1.5273 0 0zm16.175-2.1758c.12844-2.4239-3.7926-.32677-1.256.94963.61395 1.1605 1.8762-.0267 1.256-.94963zm-35.713 1.1828c-.17187-2.9057-5.0676.94853-1.3733.33417.43201.0655 1.1032.13941 1.3733-.33417zm30.602-1.0072c-1.9514-1.4644-4.8073-4.206-7.2162-3.1325 2.1298 1.6251 4.9786 1.7182 7.2162 3.1325zm-4.1445-4.0284c-1.2679-3.9818-3.4646 1.8028 0 0zm3.243-8.6716c2.2226-4.1273-3.0216 2.2401 0 0zm2.9509-.86651c-1.4444-2.7878-2.0009 2.1861 0 0zm-11.495-.63745c1.6132-4.1062-2.5308 1.6716 0 0zm-3.0821-.17132c-.0621-1.8439-1.2288.34414 0 0zm17.039-.002c.16362-2.6068-1.6987 1.5009 0 0zm-26.023-1.9606c-.50256-1.0719-.56479.7719 0 0zm-2.5435-1.2191c.52754-4.2067-3.1478 2.1828 0 0zm16.507-.67748c1.8585-5.7993-3.6981 2.0605 0 0zm.28328-7.3759c-.13949-2.3468-4.3157-2.0558-1.5526-.0254.41098.37019 1.1574.49791 1.5526.0254zm5.7312-.67981c1.6416-2.5631-2.5269 1.166 0 0zm-9.7734-3.0907c-1.2082-.49737.50578.9022 0 0zm17.329-2.0204c3.2792-.92363-1.7257-3.3691-1.306.007.25958.42946.96215.15222 1.306-.007zm-2.1611.0101c-.0114-2.6043-7.5422-2.9055-2.6981-1.5102.98403.31854 1.9651.75795 2.6981 1.5102zm.49756-20.571c-1.2748-2.1523-1.0206 1.8102 0 0zm-11.623-.34322c-.35228-2.459-1.7271 1.2205 0 0zm9.7691-1.4708c-.6077-1.6482-.29862 1.339 0 0zm-9.7691-1.4396c-.43956-1.8832-1.3626.87133 0 0zm-2.3066-2.3969c-.39263-1.0031-.17332.89983 0 0zm.88478-3.4603c-.1441-4.9193-2.3139 3.2798 0 0zm2.3472.11943c-.29434-3.3843-2.3763 1.4655 0 0z"/><path id="path1035" style="stroke-width:.26795;fill:#5b6d6f" d="m103.04 248.99c-5.6418-1.1041-11.015-4.8241-13.11-10.313-2.9229-3.1008-.9937-7.6156.89154-10.712 2.1816-2.9854 2.3352-7.2786 5.3988-9.6204 3.6281-1.0167 5.0512 3.9868 8.1499 4.998 2.2374-.0143-2.569-2.8438-.39938-4.5996.51154-1.4734 4.031-4.0635 1.0172-1.8232-1.6553 1.3743-3.0926-.51341-4.6233.55063-1.1398-2.4396 4.6959-1.9387 5.8201-4.1362 1.8917-2.2648 2.8894-7.7698 7.0205-4.8628 1.6279 1.5375 6.8506 5.8938 7.2517 1.9851-2.933-.0627-4.6274-5.018-1.9611-6.2593-.57218 2.4275-6.1826 1.1634-2.8114-.72471 2.5648-3.705-1.7762-7.2096-2.8705-10.568-.33524-5.0467 5.3225-3.2028 8.2982-3.5683 2.8788-1.7937-2.768-.95488-3.8073-.95467-4.8408-.0475-3.7409-4.8159-2.557-7.799.6757-4.289-.0743-9.4052 3.3522-12.705 3.7012-2.536 8.2865-.50171 12.356-.35672 2.8791.32797 8.1448 1.0852 5.0689 4.8261-1.766 3.2418-.3131 6.9689-1.151 10.373-.86222 3.0447-6.2737-3.1223-4.3807.80634-1.4766 2.5068-4.802-3.9713-4.4929-.74165 1.732 3.7175 6.5623 4.9508 9.3481 5.2257.67966 4.2092 1.178 8.8351.8429 12.939-1.9864 4.2048-7.317 1.7316-10.116 1.4097 2.3476 2.2597 5.7568 2.9327 8.8703 2.1733 3.3588 1.4202.0436 6.6164 1.0751 9.5179.51715 3.2605.62255 9.8111-4.5422 7.5503-1.1476-.39528-2.9742-2.0649-1.6716.20134 2.6233 2.7004 9.0789 3.008 7.3634 8.3042.77377 3.393 2.3377 10.361-3.3368 9.7383-4.1907-1.8742-6.2352 3.1683-9.7503 3.1872-2.3854-3.467-6.7722-6.2402-11.064-4.3065-4.2959 1.508-7.8221 5.542-7.9577 10.204-.35719.50585-1.0894.36806-1.5213.0621zm-1.2674-10.355c-.60547-.85139-.15494 2.1262 0 0zm-5.5721-1.4113c-.32633-3.3187-5.5142 1.2514-1.4288.5881.50923.0815 1.295.0607 1.4288-.5881zm35.711.2611c2.7707-1.9034-4.2844-3.5107-1.2532-.99541-.0598.60265.63776 1.9728 1.2532.99541zm-4.1771-.47132c-1.6226-2.0381-4.5104-3.6155-5.3201-5.7848-2.3546-.42305-5.2863 1.2154-1.8391 2.665 2.2791 1.2831 5.138 1.3462 7.1591 3.1198zm-23.186-3.8727c.66564-3.1137 4.8749-6.186 5.2958-8.1199-4.3231 1.0671-5.2471 6.1603-6.571 9.7393.23694.86486 1.1485-1.3444 1.2753-1.6195zm31.055-1.4396c-.0421-2.2721-.74963 1.3655 0 0zm-9.6218-8.0193c2.3139-3.5648-3.4656 1.066-.1711.3903.057-.1301.11407-.2602.1711-.3903zm3.3805-.80698c-1.7071-2.7188-2.8843 1.585 0 0zm-14.654-.52321c-.36835-3.118-2.8524.47721 0 0zm2.6594-.11179c2.6663-3.1269-2.3531-.57801 0 0zm-11.672-2.2955c-1.4372-2.4273-1.3572 2.3981 0 0zm13.606-1.7883c2.1955-3.3472-3.9718.16379-.37802.52481.18935-.13519.30615-.30552.37802-.52481zm6.0427-7.9513c3.0574-4.3576-4.068 1.4517 0 0zm-9.7694-17.935c-1.659-1.6195.48307 2.2222 0 0zm4.2409-8.1558c.1908-3.6568-2.4755 1.3214 0 0zm-.21511-3.346c-1.6377-1.7546.67097 2.0216 0 0zm8.5689-1.4915c.57249-2.2494-.92897.84667 0 0zm-10.81-.68943c-.67692-1.7146-1.0324 1.1687 0 0zm.9109-3.5223c1.5374-4.0789-4.1595 1.8201-.11298 1.2633.23536-.38141.0842-.85415.11298-1.2633zm2.3586-.0657c-.97958-3.2741-2.0518 1.874 0 0zm1.9486-.73394c.15008-2.2054-3.9105-1.6049-1.1986-.25905.27623.2843.82579.56644 1.1986.25905zm-9.5656 66.799c3.6798 3.5536-6.8398 6.4967-2.9526 1.573.8532-.73778 1.9067-1.1839 2.9526-1.573zm2.8493-31.776c-2.831-2.049 2.8321.23856 0 0zm-3.5956-2.347c-1.1188-3.0253 3.9768 1.6476.40288.30378zm18.359-20.851c.0596-4.0827 3.7949 1.4101 0 0zm-10.015-19.82c3.3312-.18886 1.5398.38131 0 0z"/><path id="path1033" style="stroke-width:.26795;fill:#454c4f" d="m109.08 244.32c-1.0126-3.0474 6.2009-1.6971 1.6205-.78632-.59811.0965-1.201.33054-1.6205.78632zm-5.2871.25008c-2.7137-3.782-1.0893-8.929 1.5215-12.302 1.1159-4.9996 7.4018-4.4537 10.34-7.0368.49128-4.0453-4.2213-5.8815-6.6393-8.3222-2.9358-2.0145-2.8713-7.6611.95755-8.5139 4.5797-.42198 7.1047 6.1036 12.122 3.5948 4.9233-.51588 5.3927-7.2943.44632-8.2202-4.9576-.22044-7.571-4.9801-8.6841-9.3142-2.1951-4.4519 3.0802-5.5497 6.3313-4.5025 4.9404.67794 3.9596-5.102 1.0317-7.0142-1.9974-2.3554-6.0394-3.9961-5.9093-7.5121 1.6007-1.0418 3.8146 1.8938 5.8971-.0887 3.1599-1.208 5.4195-4.4671 9.0643-4.2426 2.3559.20554 3.9955-3.4636 4.838.42555-.3329 3.2665-.69945 7.0738-1.5768 9.9074-2.6478 1.3588-8.1995-3.9009-8.8528 1.049 2.8154 2.1278 4.1546 5.6852 6.8108 7.7005-.61347-2.5178 3.4598-4.4678 3.3136-.86363.34352 3.8807.85977 7.8794.57262 11.833-2.6059-2.5394-7.648-3.46-10.281-.51631-1.4702 3.8052 5.7762 4.9714 8.6686 4.3002 3.8503.9163.24712 6.4032 1.4774 9.2448-.0625 2.0523.0435 6.2337-.73888 6.9112-2.0166-4.0665-9.5212-2.9171-9.6864 1.7544.98154 2.4791 4.6139-.94159 6.3382 1.4493 2.9422.0737 5.3355 1.573 4.6226 4.792 1.0094 3.3999 3.5876 10.01-2.054 10.46-3.6181-.38069-6.6809.98203-9.1662 3.3711-3.4095-1.1189-5.168-6.2162-9.6779-4.8637-4.3452.36399-8.5535 3.214-10.039 7.389-.50962.52065-1.11-.38482-1.0471-.86801zm31.603-6.7408c-.65398-1.0291-.43751.60305.01.36432zm-5.8848-.4547c4.6913.17363 3.9501-7.7557-.17033-8.1058-3.4906-1.0665-9.269-2.7553-11.177 1.5571-.31064 4.1164 5.168 3.7329 7.5469 5.729.88534.98299 2.6685 2.0725 3.8004.81965zm5.9424-6.1722c.73552-2.3538-2.4106-2.942-1.0413-.30694-.13223 1.0861 1.5388 2.1399 1.0413.30694zm-18.89-1.3085c.2169-4.495-2.1909 1.4143 0 0zm17.34-.38335c-.53606-.88205-.23031.96806 0 0zm-16.53-7.274c1.566-2.898-2.4806.002-.49369.17394zm1.7206-3.7419c2.5912-3.7039-4.6483-.90875-.6296.64207l.40264-.23238zm3.276-4.3016c-.60867-1.7558-1.302.88008 0 0zm.11811-14.344c-1.1337-1.0631-.2589 1.4463 0 0zm2.0528-2.0889c-.57141-1.1162-.41908 1.0948 0 0zm2.1709-2.1167c-.57142-1.1163-.41906 1.0948 0 0zm-9.2264-2.2646c-1.4667-2.161-.89228 2.0798 0 0zm-1.6282-.26636c.16582-4.1934-2.4581 1.5433 0 0zm13.025.41427c-.57142-1.1163-.41908 1.0948 0 0zm-.27136-13.481c-1.3916-2.3747-5.9068-4.3152-2.6261-.67449.68848.58763 1.7333 1.2623 2.6261.67449zm-.54273-6.627c-1.9606-2.1559-1.858 2.4804 0 0zm-8.4123 70.732c2.4982-1.9171.0984 3.457 0 0zm-.54273-1.4267c.60673-.55013.12331.82938 0 0zm-21.234-4.5252c-1.7617-3.8313-9.8018.4262-9.1241-5.1761.91539-4.4119 4.6913-7.7165 5.055-12.312 1.3977-3.7862 6.8975-1.5737 7.0908 1.2705 3.8825.0264 6.9384 5.6069 3.4626 8.2441-1.8201 2.5842-1.279 8.7419-5.9958 8.1174-.1649-.039-.32506-.0984-.48839-.14384zm38.345-68.334c-1.0862-1.2165 1.0438-.23654 0 0z"/><path id="path1031" style="stroke-width:.26795;fill:#383d40" d="m107.8 248.19c-.70089-2.1602 5.28-6.2088 2.321-2.3028-.5283.62594-1.1844 3.3607-2.321 2.3028zm-4.0655-3.2392c-2.5378-3.8409-.62906-8.8075 2.0166-12.051 1.2422-5.2194 8.1182-5.0005 10.587-1.035 3.4657 3.1421.47262 8.3017-3.885 6.9798-3.7304.65352-6.4492 3.6756-8.3393 6.7554-.27612-.0932-.23378-.46224-.3794-.64936zm7.031-15.274c-1.2913-.74628.1984 1.2964 0 0zm17.517 10.479c3.1915-1.367 5.39-3.9603 4.8788-7.44 1.2052.32025 2.6996 1.8431 2.3201-.86603-.15587-3.2579 1.4498 2.3974.83575 3.3742.0647 5.5594-3.9793 5.2491-8.0346 4.9318zm-11.497-9.6412c-2.3835-3.6898.52765-7.6767 2.0423-11.068-.14671-2.4865 1.5217-6.0791 3.9657-3.0948 3.6595 2.4626 1.7298 7.8955.93205 11.319-1.9656 1.5652-4.7755 1.6685-6.9401 2.8432zm-3.157-1.8486c.97391-.77125 1.0476 1.0745 0 0zm19.81-.83414c.60672-.55011.1233.82938 0 0zm.94977-1.5719c.72749-1.0898.20398.98775 0 0zm-1.4338-6.1516c-3.5566-1.1803-8.6106-.69174-10.391-4.745-1.112-3.5383 3.9949-4.2614 5.2526-6.8925 2.6874-2.8329 8.9802-1.4699 6.6127 3.1117-.61849 2.3851 1.515 8.2846-1.4747 8.5258zm1.8622-14.111c.52172-.8361-.258 1.5671 0 0zm-12.939-2.9545c-1.3702-3.4492 2.2798.6531 0 0zm1.52-1.9588c2.559-2.2697 3.9957-6.6483 7.9506-6.6715 3.5732-.53187 4.9117 7.6997.73738 5.5361-2.7826-2.0069-5.911.44427-8.688 1.1354zm-1.5003-1.4807c.89864-3.9505 4.0823-8.0463 1.9032-12.133-1.8136-4.4674-6.739-6.591-8.7496-10.93 1.9264-.31563 3.8838 2.3643 5.4964.14769 3.2591-.1928 5.2209 4.3792 2.4143 5.7098 1.3467 3.7229 6.677 4.9924 6.536 9.3889-1.1769 3.401-4.9536 5.5322-7.6002 7.8165zm-.006-20.726c-1.3686-.79347.1418 1.4002 0 0zm9.8512 3.4276c-1.9824-1.5359-7.841-3.7541-6.1091-6.4541 2.3137-2.1818 4.5035-4.007 7.6151-4.4789 2.4355 1.8377-.009 6.149.43065 9.0082-.0721.78611-.92537 2.8373-1.9366 1.9249zm-11.126-14.957c.74569-.61219.62934.72094 0 0zm3.2564 0c.74569-.61218.62933.72094 0 0z"/></g></g></svg>
