<?xml version="1.0" encoding="UTF-8" standalone="no"?>
<!-- Created with Inkscape (http://www.inkscape.org/) -->

<svg
   xmlns:osb="http://www.openswatchbook.org/uri/2009/osb"
   xmlns:dc="http://purl.org/dc/elements/1.1/"
   xmlns:cc="http://creativecommons.org/ns#"
   xmlns:rdf="http://www.w3.org/1999/02/22-rdf-syntax-ns#"
   xmlns:svg="http://www.w3.org/2000/svg"
   xmlns="http://www.w3.org/2000/svg"
   xmlns:sodipodi="http://sodipodi.sourceforge.net/DTD/sodipodi-0.dtd"
   xmlns:inkscape="http://www.inkscape.org/namespaces/inkscape"
   width="35.040791mm"
   height="26.373806mm"
   viewBox="0 0 35.040791 26.373806"
   version="1.1"
   id="svg8"
   inkscape:version="0.92.1 r15371"
   sodipodi:docname="TableroInicio.svg">
  <defs
     id="defs2">
    <linearGradient
       id="linearGradient6629"
       osb:paint="solid">
      <stop
         style="stop-color:#000080;stop-opacity:1;"
         offset="0"
         id="stop6627" />
    </linearGradient>
    <linearGradient
       id="linearGradient6527"
       osb:paint="solid">
      <stop
         style="stop-color:#00c8ff;stop-opacity:1;"
         offset="0"
         id="stop6525" />
    </linearGradient>
    <linearGradient
       id="linearGradient6173-3"
       osb:paint="solid">
      <stop
         id="stop6238"
         offset="0"
         style="stop-color:#00007a;stop-opacity:1;" />
    </linearGradient>
    <linearGradient
       id="linearGradient6173">
      <stop
         id="stop6235"
         offset="0"
         style="stop-color:#00007a;stop-opacity:1;" />
    </linearGradient>
    <linearGradient
       id="linearGradient6217"
       osb:paint="gradient">
      <stop
         style="stop-color:#00007a;stop-opacity:1;"
         offset="0"
         id="stop6213" />
      <stop
         style="stop-color:#00007a;stop-opacity:0;"
         offset="1"
         id="stop6215" />
    </linearGradient>
    <linearGradient
       id="linearGradient6193"
       osb:paint="solid">
      <stop
         style="stop-color:#00007a;stop-opacity:1;"
         offset="0"
         id="stop6191" />
    </linearGradient>
    <linearGradient
       id="linearGradient6173-3-6">
      <stop
         style="stop-color:#00007a;stop-opacity:1;"
         offset="0"
         id="stop6171" />
    </linearGradient>
    <linearGradient
       id="linearGradient6149"
       osb:paint="gradient">
      <stop
         style="stop-color:#00c5ff;stop-opacity:0.99215686;"
         offset="0"
         id="stop6145" />
      <stop
         style="stop-color:#00007a;stop-opacity:0;"
         offset="1"
         id="stop6147" />
    </linearGradient>
    <linearGradient
       id="linearGradient6081">
      <stop
         style="stop-color:#00007a;stop-opacity:1;"
         offset="0"
         id="stop6079" />
    </linearGradient>
  </defs>
  <sodipodi:namedview
     id="base"
     pagecolor="#ffffff"
     bordercolor="#666666"
     borderopacity="1.0"
     inkscape:pageopacity="0.0"
     inkscape:pageshadow="2"
     inkscape:zoom="2.8210614"
     inkscape:cx="79.259067"
     inkscape:cy="36.67087"
     inkscape:document-units="mm"
     inkscape:current-layer="g7486"
     showgrid="false"
     showguides="false"
     inkscape:window-width="1366"
     inkscape:window-height="704"
     inkscape:window-x="0"
     inkscape:window-y="27"
     inkscape:window-maximized="1"
     fit-margin-top="0"
     fit-margin-left="0"
     fit-margin-right="0"
     fit-margin-bottom="0" />
  <metadata
     id="metadata5">
    <rdf:RDF>
      <cc:Work
         rdf:about="">
        <dc:format>image/svg+xml</dc:format>
        <dc:type
           rdf:resource="http://purl.org/dc/dcmitype/StillImage" />
        <dc:title />
      </cc:Work>
    </rdf:RDF>
  </metadata>
  <g
     inkscape:label="Capa 1"
     inkscape:groupmode="layer"
     id="layer1"
     transform="translate(-79.164889,-118.13071)">
    <g
       id="g7486">
      <g
         id="g37137"
         transform="translate(7.9375,-0.52916667)" />
      <g
         id="g37092"
         transform="matrix(0.84104845,0,0,0.95357525,-20.420808,105.57763)"
         style="fill:#5c2a04;fill-opacity:1;stroke:#431514;stroke-opacity:1">
        <path
           sodipodi:nodetypes="ccccc"
           inkscape:connector-curvature="0"
           id="path36724"
           d="m 135.07293,40.218686 c 1.10243,0.729096 3.1309,0.668337 4.29948,0 V 27.641772 c -1.11805,-0.361807 -1.85147,-1.165231 -4.29948,0 z"
           style="fill:#5c2a04;fill-opacity:1;stroke:#431514;stroke-width:0.1581374;stroke-linecap:butt;stroke-linejoin:miter;stroke-miterlimit:4;stroke-dasharray:none;stroke-opacity:1" />
        <path
           style="fill:#5c2a04;fill-opacity:1;stroke:#431514;stroke-width:0.14471009;stroke-linecap:butt;stroke-linejoin:miter;stroke-miterlimit:4;stroke-dasharray:none;stroke-opacity:1"
           d="m 118.54149,31.246911 c 1.10243,0.61054 3.1309,0.559661 4.29948,0 V 20.715112 c -1.11805,-0.302974 -1.85147,-0.975755 -4.29948,0 z"
           id="path36764"
           inkscape:connector-curvature="0"
           sodipodi:nodetypes="ccccc" />
        <path
           style="fill:#5c2a04;fill-opacity:1;stroke:#431514;stroke-width:0.17614383;stroke-linecap:butt;stroke-linejoin:miter;stroke-miterlimit:4;stroke-dasharray:none;stroke-opacity:1"
           d="m 135.07293,29.089204 c 2.22649,0.08725 4.67851,-0.619729 5.14427,-1.48682 l -16.72986,-8.440236 c -1.5731,0.587743 -2.87493,1.015103 -4.94585,1.552964 z"
           id="path36804"
           inkscape:connector-curvature="0"
           sodipodi:nodetypes="ccccc" />
        <path
           sodipodi:nodetypes="ccccc"
           inkscape:connector-curvature="0"
           id="path36844"
           d="m 139.37241,27.641772 c 2.22649,0.08725 4.67851,-0.619729 5.14427,-1.48682 l -15.88507,-8.479624 c -3.09367,1.074592 -3.13893,1.012701 -5.14427,1.48682 z"
           style="fill:#5c2a04;fill-opacity:1;stroke:#431514;stroke-width:0.17614383;stroke-linecap:butt;stroke-linejoin:miter;stroke-miterlimit:4;stroke-dasharray:none;stroke-opacity:1" />
        <path
           style="fill:#5c2a04;fill-opacity:1;stroke:#431514;stroke-width:0.17614383;stroke-linecap:butt;stroke-linejoin:miter;stroke-miterlimit:4;stroke-dasharray:none;stroke-opacity:1"
           d="m 144.51668,26.154952 c 2.22649,0.08725 4.67851,-0.619729 5.14427,-1.48682 L 133.12951,16.29404 c -1.74353,0.507983 -2.13065,0.518579 -4.4979,1.381288 z"
           id="path36884"
           inkscape:connector-curvature="0"
           sodipodi:nodetypes="ccccc" />
        <path
           sodipodi:nodetypes="ccccc"
           inkscape:connector-curvature="0"
           id="path36924"
           d="m 149.66095,24.668132 c 2.22649,0.08725 4.67851,-0.619729 5.14427,-1.48682 L 138.27378,14.80722 c -2.66575,0.651556 -2.3154,0.8257 -5.14427,1.48682 z"
           style="fill:#5c2a04;fill-opacity:1;stroke:#431514;stroke-width:0.17614383;stroke-linecap:butt;stroke-linejoin:miter;stroke-miterlimit:4;stroke-dasharray:none;stroke-opacity:1" />
        <path
           style="fill:#5c2a04;fill-opacity:1;stroke:#431514;stroke-width:0.1581374;stroke-linecap:butt;stroke-linejoin:miter;stroke-miterlimit:4;stroke-dasharray:none;stroke-opacity:1"
           d="m 155.65001,34.271406 c 1.10243,0.729096 3.1309,0.668337 4.29948,0 V 21.694492 c -1.11805,-0.361807 -1.85147,-1.165231 -4.29948,0 z"
           id="path37004"
           inkscape:connector-curvature="0"
           sodipodi:nodetypes="ccccc" />
        <path
           style="fill:#5c2a04;fill-opacity:1;stroke:#431514;stroke-width:0.17614383;stroke-linecap:butt;stroke-linejoin:miter;stroke-miterlimit:4;stroke-dasharray:none;stroke-opacity:1"
           d="m 154.80522,23.181312 c 2.22649,0.08725 4.67851,-0.619729 5.14427,-1.48682 l -16.72986,-8.440236 c -1.35887,0.324101 -2.20332,0.476248 -4.94585,1.552964 z"
           id="path36964"
           inkscape:connector-curvature="0"
           sodipodi:nodetypes="ccccc" />
      </g>
      <path
         style="fill:#5c2a04;fill-opacity:1;stroke:#431514;stroke-width:0.16500001;stroke-miterlimit:4;stroke-dasharray:none;stroke-opacity:1"
         id="path4699"
         d="m 85.897105,126.88167 c 0.109689,0.1664 0.228984,0.3248 0.353015,0.48054 0.114104,0.11334 0.214915,0.23518 0.3132,0.36163 0.0823,0.0983 0.190151,0.15869 0.294514,0.22788 0.08525,0.0766 0.200859,0.0788 0.292251,0.14418 0.06359,0.0882 0.148194,0.11193 0.242057,0.15337 0.105297,0.059 0.206233,0.12594 0.312278,0.184 0.146107,0.0755 0.283071,0.16165 0.3934,0.285 0.09574,0.11343 0.202657,0.21983 0.285865,0.34315 0.09221,0.11869 0.209706,0.21511 0.317215,0.31954 0.113299,0.0906 0.205105,0.20481 0.326873,0.28432 0.100882,0.0885 0.197307,0.18027 0.306322,0.26002 0.106454,0.1075 0.246553,0.1671 0.378294,0.23654 0.187392,0.0838 0.358972,0.1974 0.53918,0.2949 0.185269,0.10799 0.380907,0.19628 0.56421,0.30763 0.15337,0.10752 0.317706,0.18904 0.48406,0.27283 0.05589,0.0449 0.113272,0.0863 0.174187,0.12403 0,0 -0.07763,0.05 -0.07763,0.05 v 0 c -0.06044,-0.0379 -0.117486,-0.0793 -0.173564,-0.12342 -0.166744,-0.0835 -0.330027,-0.16701 -0.483941,-0.27378 -0.183458,-0.1108 -0.378853,-0.19935 -0.564033,-0.30722 -0.180024,-0.0979 -0.352017,-0.2108 -0.539402,-0.29461 -0.132409,-0.0693 -0.272353,-0.1299 -0.379425,-0.23745 -0.108545,-0.08 -0.204986,-0.17161 -0.306021,-0.25966 -0.121524,-0.0807 -0.214325,-0.19456 -0.327641,-0.28588 -0.108111,-0.10469 -0.226055,-0.20161 -0.318224,-0.32116 -0.08307,-0.12291 -0.189898,-0.22882 -0.285265,-0.34204 -0.10989,-0.12245 -0.246466,-0.20744 -0.391822,-0.28231 -0.105687,-0.0582 -0.206593,-0.12487 -0.312051,-0.18313 -0.09475,-0.0406 -0.178648,-0.0679 -0.243032,-0.15499 -0.09155,-0.0636 -0.207971,-0.0664 -0.292139,-0.1439 -0.105643,-0.0691 -0.212792,-0.13204 -0.295861,-0.23062 -0.098,-0.12658 -0.199179,-0.24802 -0.312633,-0.36183 -0.123714,-0.1556 -0.242269,-0.31408 -0.353381,-0.4791 0,0 0.07914,-0.0485 0.07914,-0.0485 z"
         inkscape:connector-curvature="0" />
      <path
         style="fill:#5c2a04;fill-opacity:1;stroke:#431514;stroke-width:0.16500001;stroke-miterlimit:4;stroke-dasharray:none;stroke-opacity:1"
         id="path4701"
         d="m 89.846621,128.74498 c 0.13615,0.11629 0.279881,0.22184 0.424936,0.32764 0.147519,0.0971 0.293464,0.19942 0.42252,0.32042 0.131589,0.0912 0.184195,0.21943 0.214323,0.37079 0.02808,0.15346 0.149453,0.21363 0.275978,0.27951 0.127895,0.0336 0.219375,0.0932 0.30204,0.19495 0.0966,0.11032 0.184988,0.2257 0.266572,0.34785 0.07687,0.12847 0.18519,0.19451 0.310039,0.26662 0.10161,0.10415 0.222843,0.15515 0.361587,0.18837 0.118972,0.0286 0.247305,0.0533 0.358116,0.10701 0.01641,0.008 0.03281,0.0163 0.04922,0.0244 0,0 -0.0774,0.051 -0.0774,0.051 v 0 c -0.01639,-0.008 -0.03277,-0.0162 -0.04915,-0.0243 -0.111282,-0.052 -0.237927,-0.0774 -0.356808,-0.10559 -0.138968,-0.0343 -0.260477,-0.0871 -0.36303,-0.19056 -0.126191,-0.0724 -0.234391,-0.14146 -0.312198,-0.27028 -0.08146,-0.12189 -0.169622,-0.23706 -0.26638,-0.34693 -0.08227,-0.10043 -0.173867,-0.15733 -0.299869,-0.1919 -0.128547,-0.0677 -0.251237,-0.13066 -0.279997,-0.2867 -0.02946,-0.14997 -0.08138,-0.27535 -0.211538,-0.36577 -0.128978,-0.12048 -0.274302,-0.22282 -0.421464,-0.31974 -0.144946,-0.1053 -0.287661,-0.21172 -0.424989,-0.32579 0,0 0.0775,-0.051 0.0775,-0.051 z"
         inkscape:connector-curvature="0" />
      <path
         style="fill:#5c2a04;fill-opacity:1;stroke:#431514;stroke-width:0.16500001;stroke-miterlimit:4;stroke-dasharray:none;stroke-opacity:1"
         id="path4703"
         d="m 82.885389,125.39357 c 0.11243,0.15097 0.195312,0.31907 0.288021,0.48172 0.06496,0.14606 0.166416,0.25578 0.284379,0.35868 0.111417,0.0825 0.227926,0.15671 0.344973,0.23058 0.09819,0.0955 0.218588,0.1434 0.350001,0.17229 0.119247,0.01 0.225002,0.0609 0.326912,0.11895 0.0897,0.0542 0.193223,0.0731 0.289752,0.1116 0.09554,0.078 0.206147,0.11872 0.325257,0.14406 0.158705,0.0443 0.314305,0.0983 0.472906,0.14289 0.160158,0.0617 0.317564,0.13096 0.48081,0.18422 0.116171,0.0376 0.224817,0.0898 0.333949,0.14371 0,0 -0.07688,0.0506 -0.07688,0.0506 v 0 c -0.108744,-0.0538 -0.2173,-0.10539 -0.333151,-0.14267 -0.162948,-0.0538 -0.320332,-0.12266 -0.480548,-0.18394 -0.158465,-0.045 -0.314172,-0.0985 -0.473088,-0.14207 -0.119195,-0.0264 -0.229593,-0.0685 -0.326212,-0.14525 -0.09689,-0.0383 -0.20105,-0.0571 -0.290485,-0.11267 -0.101347,-0.0577 -0.207011,-0.10642 -0.325218,-0.11677 -0.13188,-0.0302 -0.252579,-0.0796 -0.351748,-0.17494 -0.11719,-0.0744 -0.234341,-0.14855 -0.345673,-0.23181 -0.118759,-0.10349 -0.219998,-0.21499 -0.285519,-0.36161 -0.09256,-0.16297 -0.175566,-0.3312 -0.289059,-0.4817 0,0 0.08062,-0.0459 0.08062,-0.0459 z"
         inkscape:connector-curvature="0" />
      <path
         style="fill:#5c2a04;fill-opacity:1;stroke:#431514;stroke-width:0.16500001;stroke-miterlimit:4;stroke-dasharray:none;stroke-opacity:1"
         id="path4705"
         d="m 87.668606,127.45692 c 0.06698,0.15042 0.146598,0.29529 0.20054,0.45115 0.04902,0.11256 0.134539,0.21486 0.239675,0.27907 0.07926,0.0613 0.16384,0.1123 0.244974,0.17046 0.07442,0.0393 0.146782,0.0792 0.220055,0.1216 0.0844,0.0414 0.168758,0.0834 0.259534,0.10955 0.07199,0.0127 0.13646,0.0464 0.194709,0.0892 0,0 -0.07826,0.0497 -0.07826,0.0497 v 0 c -0.05807,-0.0416 -0.121862,-0.0737 -0.192852,-0.0867 -0.09104,-0.027 -0.176503,-0.0688 -0.261107,-0.11119 -0.07324,-0.0427 -0.1467,-0.0816 -0.220448,-0.12243 -0.08074,-0.0583 -0.165479,-0.10888 -0.244427,-0.17005 -0.106135,-0.0667 -0.192877,-0.16988 -0.242487,-0.28474 -0.05353,-0.15555 -0.132775,-0.30019 -0.200521,-0.44977 0,0 0.08062,-0.0459 0.08062,-0.0459 z"
         inkscape:connector-curvature="0" />
      <path
         style="fill:#5c2a04;fill-opacity:1;stroke:#431514;stroke-width:0.16500001;stroke-miterlimit:4;stroke-dasharray:none;stroke-opacity:1"
         id="path4707"
         d="m 87.741025,124.83271 c 0.0055,0.12206 0.06848,0.21813 0.118185,0.32427 0.05779,0.11591 0.148136,0.19575 0.251313,0.27045 0.102916,0.0893 0.198463,0.18142 0.325037,0.23536 0.145544,0.063 0.212655,0.0175 0.235681,0.002 0.128303,-0.0624 0.128188,-0.0879 0.252157,-0.23389 0.0637,-0.0972 0.118591,-0.18999 0.199603,-0.2738 0.02924,-0.059 0.08409,-0.16066 0.0096,-0.20295 -0.0939,-0.0196 -0.175591,-0.0533 -0.251858,-0.11239 -0.07224,-0.0639 -0.167825,-0.0705 -0.252318,-0.10575 -0.07482,-0.0426 -0.155364,-0.0777 -0.24049,-0.0507 -0.01178,0.004 -0.04422,0.0202 -0.03533,0.0116 0.01254,-0.0122 0.03035,-0.028 0.04711,-0.023 0.01487,0.004 -0.02672,0.0159 -0.03896,0.0254 -0.04448,0.0346 -0.07263,0.0833 -0.10673,0.12736 -0.09062,0.0917 -0.111313,0.21096 -0.127466,0.33365 -0.0031,0.1252 -0.04321,0.26747 0.02478,0.38005 0.05772,0.0937 0.150316,0.13982 0.25396,0.16397 0.107419,-0.0118 0.09786,-0.0575 0.204905,-0.16643 0.106291,-0.10452 0.185775,-0.20983 0.229328,-0.35326 0.0307,-0.13873 0.05049,-0.27869 0.01371,-0.4174 -0.0087,-0.0137 -0.01739,-0.0273 -0.02608,-0.0409 0,0 0.08015,-0.0467 0.08015,-0.0467 v 0 c 0.0091,0.0145 0.01823,0.029 0.02735,0.0435 0.03737,0.1404 0.01879,0.28138 -0.01178,0.42211 -0.04241,0.14538 -0.119926,0.25176 -0.227366,0.35734 -0.102547,0.10286 -0.208648,0.24943 -0.366526,0.25455 -0.105346,-0.0262 -0.199052,-0.0748 -0.257881,-0.1702 -0.06887,-0.11521 -0.0313,-0.25747 -0.02746,-0.38566 0.0159,-0.12319 0.03394,-0.24576 0.125287,-0.33807 0.08094,-0.10286 0.154982,-0.19941 0.292775,-0.23461 0.08681,-0.022 0.168137,0.0136 0.243874,0.0558 0.08602,0.0339 0.180848,0.0438 0.253637,0.10789 0.07634,0.0585 0.159223,0.0886 0.251621,0.11142 0.0772,0.0513 0.02947,0.14822 -0.0024,0.21781 -0.08072,0.0843 -0.138982,0.17352 -0.199871,0.27334 -0.09317,0.10756 -0.16159,0.17836 -0.284932,0.25768 -0.01126,0.007 0.02263,-0.0143 0.03395,-0.0215 -0.140464,0.0938 -0.237794,0.1569 -0.398935,0.0825 -0.126452,-0.0553 -0.222707,-0.14756 -0.326244,-0.23701 -0.103993,-0.076 -0.195435,-0.15712 -0.25385,-0.27436 -0.05029,-0.10729 -0.11337,-0.20462 -0.120343,-0.32773 0,0 0.08275,-0.0422 0.08275,-0.0422 z"
         inkscape:connector-curvature="0" />
      <path
         style="fill:#5c2a04;fill-opacity:1;stroke:#431514;stroke-width:0.16500001;stroke-miterlimit:4;stroke-dasharray:none;stroke-opacity:1"
         id="path4709"
         d="m 88.148031,125.09969 c 0.09003,0.0957 0.137718,0.25959 0.271588,0.3054 0.008,-7.9e-4 0.03076,-0.007 0.02396,-0.002 -0.01932,0.0121 -0.04018,0.0256 -0.06296,0.0269 -0.009,5.2e-4 0.0096,-0.0154 0.01262,-0.024 0.0131,-0.0375 0.01347,-0.08 0.01585,-0.11906 0.01166,-0.0688 0.0553,-0.12407 0.07661,-0.18924 0.01574,-0.0739 0.0621,-0.13471 0.08447,-0.20723 0.05204,-0.0796 0.02254,-0.13791 -0.07039,-0.0961 -0.05474,0.036 -0.131396,0.0393 -0.180156,0.0856 -0.0061,0.006 0.02837,-0.008 0.02532,-4.2e-4 -0.0075,0.0194 -0.02854,0.0304 -0.0428,0.0456 0,0 -0.08533,0.0357 -0.08533,0.0357 v 0 c 0.09755,-0.10698 0.223691,-0.171 0.355979,-0.22392 0.09592,-0.033 0.139396,0.0304 0.08137,0.1137 -0.02101,0.0735 -0.06759,0.13378 -0.08413,0.20727 -0.02023,0.0654 -0.06266,0.11976 -0.07796,0.18729 -0.0049,0.0948 -0.01212,0.2191 -0.149672,0.21214 -0.132316,-0.0549 -0.1822,-0.20931 -0.273509,-0.30884 0,0 0.07914,-0.0485 0.07914,-0.0485 z"
         inkscape:connector-curvature="0" />
      <path
         style="fill:#5c2a04;fill-opacity:1;stroke:#431514;stroke-width:0.16500001;stroke-miterlimit:4;stroke-dasharray:none;stroke-opacity:1"
         id="path4711"
         d="m 87.365871,124.26998 c 0.0288,0.16418 0.07966,0.32632 0.143253,0.48032 0.06706,0.164 0.137486,0.32607 0.18224,0.49785 0.01902,0.17825 0.115855,0.32984 0.173224,0.49622 0.02556,0.15188 0.109379,0.27941 0.172628,0.41619 0.05259,0.11357 0.133594,0.16739 0.249394,0.20219 0.105291,0.006 0.202214,0.047 0.303306,0.0733 0.115441,0.0663 0.241533,0.0933 0.37198,0.11037 0.168871,0.003 0.331539,0.0271 0.496303,0.0615 0.17201,0.0294 0.34466,0.0398 0.515827,0.0744 0.159222,0.0288 0.307562,0.0954 0.465116,0.13235 0.15432,0.0636 0.30355,0.13238 0.465372,0.17682 0.123592,0.0584 0.254174,0.0953 0.380412,0.14687 0.131961,0.0807 0.261099,0.16541 0.397334,0.23889 0.138461,0.0781 0.257694,0.18107 0.379952,0.28104 0.126456,0.0757 0.241083,0.16601 0.354653,0.25917 0,0 -0.07814,0.0489 -0.07814,0.0489 v 0 c -0.113486,-0.0933 -0.228935,-0.18246 -0.354764,-0.25909 -0.12155,-0.0999 -0.240719,-0.20206 -0.378668,-0.27977 -0.135868,-0.0736 -0.264917,-0.15805 -0.397168,-0.23781 -0.125882,-0.0514 -0.25621,-0.0882 -0.379606,-0.1461 -0.161415,-0.0452 -0.310463,-0.11475 -0.465364,-0.17641 -0.157062,-0.0378 -0.305379,-0.10418 -0.464532,-0.13237 -0.171236,-0.0343 -0.34426,-0.0437 -0.51609,-0.0743 -0.164575,-0.0344 -0.327401,-0.057 -0.495914,-0.0609 -0.130784,-0.0177 -0.256582,-0.0463 -0.373065,-0.11103 -0.101027,-0.027 -0.198573,-0.0656 -0.303686,-0.0735 -0.117199,-0.037 -0.199664,-0.094 -0.253031,-0.20908 -0.06331,-0.13709 -0.147417,-0.26491 -0.172857,-0.41713 -0.0572,-0.16668 -0.154479,-0.31843 -0.173443,-0.49691 -0.04439,-0.17148 -0.114928,-0.33303 -0.181661,-0.49673 -0.064,-0.1551 -0.114789,-0.31815 -0.145755,-0.48309 0,0 0.08275,-0.0422 0.08275,-0.0422 z"
         inkscape:connector-curvature="0" />
      <path
         style="fill:#5c2a04;fill-opacity:1;stroke:#431514;stroke-width:0.16500001;stroke-miterlimit:4;stroke-dasharray:none;stroke-opacity:1"
         id="path4713"
         d="m 88.335608,123.78665 c 0.123514,0.11159 0.208561,0.25469 0.304282,0.38827 0.08954,0.0875 0.181308,0.17244 0.282254,0.24673 0.07967,0.0775 0.191387,0.10663 0.258324,0.19561 0.0604,0.072 0.142607,0.12071 0.215936,0.17859 0.101882,0.029 0.151599,0.11519 0.229824,0.17677 0.09677,0.0553 0.14549,0.15894 0.21526,0.24164 0.0801,0.0873 0.149855,0.176 0.216367,0.27367 0.09343,0.0886 0.186971,0.16652 0.244596,0.28353 0.06233,0.12001 0.174718,0.19968 0.250779,0.30957 0.07618,0.1288 0.173898,0.2006 0.30422,0.26702 0.150284,0.0873 0.304149,0.16887 0.45202,0.26008 0.102702,0.11159 0.222889,0.17292 0.367294,0.21096 0.02211,0.004 0.04422,0.008 0.06633,0.0117 0,0 -0.07572,0.053 -0.07572,0.053 v 0 c -0.02225,-0.004 -0.04451,-0.008 -0.06676,-0.0123 -0.144499,-0.0393 -0.265102,-0.10221 -0.368587,-0.21331 -0.147961,-0.0907 -0.300953,-0.17325 -0.451637,-0.25945 -0.131501,-0.0669 -0.229715,-0.14154 -0.306808,-0.27077 -0.07644,-0.11005 -0.189482,-0.18999 -0.251446,-0.31078 -0.05735,-0.11658 -0.152155,-0.19306 -0.244153,-0.28229 -0.06623,-0.0974 -0.136131,-0.1857 -0.215839,-0.27288 -0.06923,-0.0824 -0.118285,-0.18475 -0.214366,-0.24002 -0.07773,-0.0622 -0.129092,-0.14609 -0.230033,-0.17663 -0.07367,-0.0587 -0.156906,-0.10725 -0.217053,-0.18065 -0.0665,-0.0874 -0.178724,-0.11626 -0.256794,-0.19343 -0.101251,-0.0753 -0.194117,-0.16051 -0.283586,-0.24932 -0.09508,-0.13347 -0.179439,-0.27662 -0.303846,-0.38675 0,0 0.07914,-0.0485 0.07914,-0.0485 z"
         inkscape:connector-curvature="0" />
      <path
         style="fill:#5c2a04;fill-opacity:1;stroke:#431514;stroke-width:0.16500001;stroke-miterlimit:4;stroke-dasharray:none;stroke-opacity:1"
         id="path4715"
         d="m 92.462305,127.81956 c 0.142359,0.11989 0.300741,0.21819 0.443426,0.33759 0.11869,0.0984 0.256619,0.16698 0.387361,0.24642 0.122718,0.0601 0.215243,0.16274 0.331197,0.23269 0.121154,0.0836 0.250946,0.14873 0.373316,0.2311 0.139325,0.0771 0.294497,0.11421 0.438322,0.18279 0.147991,0.0543 0.263797,0.16342 0.398849,0.24013 0.14817,0.0695 0.312845,0.0775 0.473601,0.0856 0.13605,0.0103 0.2738,-0.009 0.408341,0.0147 0.150861,0.0349 0.301516,0.0789 0.444112,0.13954 0.145041,0.055 0.289776,0.11163 0.436905,0.16128 0.138921,0.0239 0.247171,0.11192 0.354128,0.19769 0.116218,0.0728 0.209204,0.17507 0.326165,0.24635 0.10862,0.0827 0.223768,0.15437 0.336169,0.23124 0.08337,0.0964 0.183897,0.16281 0.303436,0.2041 0.04695,0.0193 0.07505,0.0602 0.109242,0.0955 0,0 -0.07918,0.0483 -0.07918,0.0483 v 0 c -0.03332,-0.0344 -0.0609,-0.0736 -0.10688,-0.0919 -0.119485,-0.0427 -0.220243,-0.11026 -0.304498,-0.20627 -0.112623,-0.0763 -0.226906,-0.14901 -0.335901,-0.23091 -0.116676,-0.0723 -0.210606,-0.17391 -0.326879,-0.24724 -0.106724,-0.0849 -0.213872,-0.17136 -0.352174,-0.19514 -0.147076,-0.0503 -0.292254,-0.10612 -0.437179,-0.1619 -0.142514,-0.0596 -0.29244,-0.10401 -0.443159,-0.13758 -0.134506,-0.0215 -0.271789,-0.003 -0.407512,-0.014 -0.161855,-0.009 -0.327535,-0.0175 -0.476126,-0.0891 -0.134362,-0.0774 -0.250629,-0.1853 -0.398328,-0.23962 -0.144418,-0.0679 -0.300182,-0.10533 -0.439115,-0.18393 -0.122204,-0.0824 -0.252449,-0.14669 -0.373272,-0.23062 -0.115366,-0.0707 -0.208627,-0.17241 -0.331143,-0.2327 -0.131404,-0.0791 -0.268895,-0.14918 -0.387775,-0.24782 -0.143082,-0.11947 -0.301491,-0.21832 -0.444596,-0.33784 0,0 0.07914,-0.0485 0.07914,-0.0485 z"
         inkscape:connector-curvature="0" />
      <path
         style="fill:#5c2a04;fill-opacity:1;stroke:#431514;stroke-width:0.16500001;stroke-miterlimit:4;stroke-dasharray:none;stroke-opacity:1"
         id="path4717"
         d="m 92.56649,126.1189 c 0.15533,0.10675 0.306739,0.214 0.413424,0.37141 0.07816,0.1327 0.172536,0.24425 0.292858,0.34002 0.112669,0.0763 0.180348,0.19544 0.280349,0.28385 0.11198,0.10854 0.201214,0.23432 0.321708,0.33437 0.11006,0.1188 0.25798,0.17896 0.40121,0.24654 0.140204,0.0725 0.284498,0.13914 0.390689,0.25869 0.09088,0.11584 0.230048,0.15977 0.360136,0.21635 0.137494,0.0366 0.248134,0.12694 0.372661,0.1902 0.102814,0.0607 0.190831,0.14274 0.29655,0.19805 0.112714,0.0562 0.24002,0.0613 0.363452,0.0673 0.107777,0.0256 0.212113,0.0616 0.321623,0.0797 0.12166,0.0233 0.247168,0.0537 0.364065,0.0964 0.08656,0.0325 0.04529,0.0128 0.123974,0.0586 0,0 -0.07751,0.0504 -0.07751,0.0504 v 0 c -0.07789,-0.0443 -0.03695,-0.0251 -0.12305,-0.0573 -0.117134,-0.0416 -0.241587,-0.0727 -0.363414,-0.0949 -0.108996,-0.0189 -0.212876,-0.0555 -0.320767,-0.079 -0.124501,-0.006 -0.252624,-0.0128 -0.365807,-0.0706 -0.105129,-0.0562 -0.193554,-0.13745 -0.296333,-0.19804 -0.123993,-0.0639 -0.235231,-0.15266 -0.372314,-0.18975 -0.131178,-0.0574 -0.270893,-0.10241 -0.362252,-0.21972 -0.105708,-0.11818 -0.249595,-0.1839 -0.388679,-0.25559 -0.143695,-0.0682 -0.291782,-0.12927 -0.402279,-0.24862 -0.120182,-0.1005 -0.210019,-0.22596 -0.322204,-0.33441 -0.09931,-0.089 -0.167732,-0.20698 -0.280048,-0.28347 -0.120468,-0.0969 -0.215561,-0.20905 -0.293901,-0.34262 -0.105764,-0.15606 -0.25646,-0.26282 -0.411642,-0.36696 0,0 0.0775,-0.051 0.0775,-0.051 z"
         inkscape:connector-curvature="0" />
      <path
         style="fill:#5c2a04;fill-opacity:1;stroke:#431514;stroke-width:0.16500001;stroke-miterlimit:4;stroke-dasharray:none;stroke-opacity:1"
         id="path4719"
         d="m 82.853687,125.5373 c -0.07385,-0.11928 -0.166555,-0.22312 -0.27344,-0.31324 -0.04973,-0.0546 -0.100756,-0.10462 -0.160705,-0.14773 0,0 0.07839,-0.0498 0.07839,-0.0498 v 0 c 0.05966,0.0437 0.1107,0.0941 0.160773,0.1485 0.107419,0.0915 0.200527,0.19634 0.275596,0.31632 0,0 -0.08062,0.0459 -0.08062,0.0459 z"
         inkscape:connector-curvature="0" />
      <path
         style="fill:#5c2a04;fill-opacity:1;stroke:#431514;stroke-width:0.16500001;stroke-miterlimit:4;stroke-dasharray:none;stroke-opacity:1"
         id="path4721"
         d="m 89.28271,128.72074 c 0.144858,0.0402 0.277504,0.10984 0.425278,0.1459 0.149008,0.0411 0.30502,0.0268 0.455544,0.054 0.02032,0.006 0.04065,0.011 0.06097,0.0165 0,0 -0.07624,0.0524 -0.07624,0.0524 v 0 c -0.0201,-0.005 -0.0402,-0.0107 -0.0603,-0.016 -0.150835,-0.0256 -0.306824,-0.0128 -0.455734,-0.0546 -0.146956,-0.0366 -0.279298,-0.1075 -0.424647,-0.14361 0,0 0.07514,-0.0546 0.07514,-0.0546 z"
         inkscape:connector-curvature="0" />
      <path
         style="fill:#5c2a04;fill-opacity:1;stroke:#431514;stroke-width:0.16500001;stroke-miterlimit:4;stroke-dasharray:none;stroke-opacity:1"
         id="path4723"
         d="m 84.311916,125.81329 c 0.180755,-0.0152 0.344475,0.0277 0.502929,0.11229 0.144075,0.0988 0.313501,0.12358 0.478005,0.16662 0.181154,0.0469 0.36643,0.0715 0.540345,0.14284 0.125124,0.0545 0.229373,0.14008 0.358089,0.18626 0.120426,0.031 0.241673,0.064 0.354122,0.11821 0.109712,0.0715 0.232366,0.11705 0.348028,0.17655 0.142294,0.07 0.283206,0.14444 0.408195,0.24267 0.124962,0.084 0.256333,0.15003 0.352876,0.2689 0.07361,0.10682 0.187292,0.13349 0.298678,0.17983 0.04915,0.017 0.08369,0.0547 0.122904,0.0869 0,0 -0.07861,0.0492 -0.07861,0.0492 v 0 c -0.03855,-0.0316 -0.07295,-0.0679 -0.121257,-0.0846 -0.113249,-0.0459 -0.226514,-0.0765 -0.301016,-0.18381 -0.09628,-0.11811 -0.227954,-0.18266 -0.351629,-0.26724 -0.124942,-0.0974 -0.265352,-0.17151 -0.407286,-0.24114 -0.115973,-0.0588 -0.238062,-0.10533 -0.348054,-0.17623 -0.112792,-0.053 -0.233509,-0.0857 -0.35354,-0.11754 -0.128137,-0.0472 -0.232896,-0.13234 -0.357939,-0.18677 -0.173921,-0.0701 -0.35895,-0.0947 -0.539647,-0.14183 -0.165377,-0.0424 -0.334555,-0.0697 -0.479241,-0.16839 -0.158283,-0.0833 -0.321273,-0.12385 -0.501085,-0.10809 0,0 0.07514,-0.0546 0.07514,-0.0546 z"
         inkscape:connector-curvature="0" />
      <path
         style="fill:#5c2a04;fill-opacity:1;stroke:#431514;stroke-width:0.16500001;stroke-miterlimit:4;stroke-dasharray:none;stroke-opacity:1"
         id="path4725"
         d="m 92.285124,123.02387 c 0.146576,0.0932 0.285636,0.19535 0.410154,0.31666 0.118683,0.10804 0.240166,0.21413 0.350823,0.33054 0.09372,0.10064 0.200106,0.18288 0.314684,0.25837 0.130516,0.098 0.254024,0.20518 0.384676,0.3029 0.150477,0.101 0.310679,0.18769 0.460343,0.28964 0.156345,0.10112 0.316695,0.19417 0.466284,0.3054 0.163686,0.14589 0.340742,0.27283 0.524705,0.39155 0.119817,0.0916 0.246171,0.1791 0.383091,0.24326 0.121314,0.0672 0.243156,0.13611 0.371254,0.18976 0.13306,0.0783 0.278358,0.13161 0.417215,0.19835 0.171192,0.0692 0.32044,0.17916 0.474956,0.2779 0.158408,0.0937 0.30733,0.19985 0.455208,0.30893 0.141187,0.12186 0.302482,0.21541 0.454082,0.32258 0.131802,0.13499 0.302243,0.1886 0.470905,0.25701 0.158539,0.0584 0.31539,0.12015 0.480096,0.15919 0.162085,0.0362 0.325093,0.0767 0.484376,0.12472 0.165242,0.0376 0.317892,0.11097 0.481167,0.15477 0.13824,0.0596 0.283118,0.0967 0.423177,0.15097 0.14499,0.0899 0.31254,0.11576 0.4715,0.16714 0.15859,0.037 0.29315,0.10147 0.41645,0.20703 0.11997,0.089 0.24391,0.17241 0.38574,0.22159 0.12839,0.0569 0.25367,0.12286 0.37293,0.19712 0.12082,0.0622 0.21139,0.16554 0.32633,0.23604 0.10715,0.0827 0.22105,0.15412 0.33234,0.23057 0.12868,0.0812 0.26216,0.15456 0.38065,0.25053 0.13662,0.0855 0.20518,0.22792 0.28044,0.36402 0.0135,0.0279 0.027,0.0558 0.0405,0.0837 0,0 -0.0799,0.0454 -0.0799,0.0454 v 0 c -0.0134,-0.0277 -0.0268,-0.0555 -0.0403,-0.0832 -0.075,-0.13505 -0.14316,-0.27597 -0.27887,-0.36082 -0.11866,-0.0954 -0.25195,-0.16865 -0.38039,-0.24983 -0.11151,-0.0759 -0.22455,-0.14831 -0.3321,-0.23022 -0.11434,-0.0713 -0.20566,-0.17372 -0.32633,-0.23604 -0.11916,-0.0733 -0.24335,-0.13984 -0.37169,-0.19555 -0.14225,-0.0506 -0.26719,-0.13449 -0.38763,-0.2244 -0.12284,-0.10431 -0.25706,-0.167 -0.41433,-0.20406 -0.15945,-0.0506 -0.32625,-0.0789 -0.47195,-0.1675 -0.139751,-0.0541 -0.28441,-0.0913 -0.422485,-0.15027 -0.163026,-0.0446 -0.315999,-0.11741 -0.48123,-0.15501 -0.159502,-0.047 -0.321853,-0.0886 -0.484023,-0.12434 -0.164838,-0.0398 -0.322257,-0.10142 -0.480994,-0.16025 -0.169445,-0.0682 -0.339164,-0.12464 -0.471874,-0.25891 -0.151835,-0.10702 -0.312795,-0.2012 -0.454442,-0.32259 -0.147425,-0.10931 -0.29645,-0.21486 -0.454556,-0.30861 -0.15413,-0.0988 -0.30369,-0.20758 -0.474455,-0.27688 -0.139049,-0.0662 -0.284008,-0.12002 -0.417304,-0.19777 -0.1279,-0.0544 -0.249965,-0.12295 -0.371462,-0.19009 -0.136777,-0.0652 -0.263414,-0.15248 -0.383394,-0.24453 -0.183661,-0.11939 -0.360566,-0.24676 -0.524769,-0.39219 -0.149818,-0.11076 -0.310434,-0.20336 -0.466459,-0.30484 -0.150003,-0.10165 -0.30999,-0.18874 -0.460337,-0.29015 -0.130434,-0.0979 -0.254417,-0.20427 -0.384928,-0.3021 -0.1148,-0.0763 -0.221749,-0.1589 -0.315711,-0.26018 -0.11072,-0.11616 -0.231761,-0.22247 -0.350334,-0.33042 -0.124166,-0.12042 -0.262376,-0.22264 -0.409306,-0.31384 0,0 0.0775,-0.051 0.0775,-0.051 z"
         inkscape:connector-curvature="0" />
      <path
         style="fill:#5c2a04;fill-opacity:1;stroke:#431514;stroke-width:0.16500001;stroke-miterlimit:4;stroke-dasharray:none;stroke-opacity:1"
         id="path4727"
         d="m 90.503543,122.94204 c 0.177419,0.15622 0.382891,0.2742 0.572034,0.41479 0.140711,0.0937 0.262979,0.21058 0.392488,0.31849 0.127081,0.0916 0.27283,0.15135 0.408995,0.22692 0.126064,0.066 0.258585,0.11988 0.38292,0.18901 0.117555,0.0687 0.231208,0.14385 0.348251,0.21415 0.146798,0.059 0.294242,0.11246 0.437096,0.18132 0.14877,0.0538 0.300657,0.10016 0.45269,0.14507 0.165284,0.0653 0.337998,0.10867 0.498033,0.18672 0.145445,0.0632 0.279497,0.14751 0.430954,0.19608 0.141077,0.0655 0.29094,0.10848 0.42855,0.18128 0.127912,0.0599 0.254452,0.1152 0.373447,0.19203 0.02119,0.0119 0.04238,0.0238 0.06356,0.0357 0,0 -0.07735,0.0504 -0.07735,0.0504 v 0 c -0.02132,-0.012 -0.04263,-0.024 -0.06395,-0.0361 -0.119042,-0.076 -0.245443,-0.13132 -0.372788,-0.1915 -0.137567,-0.0718 -0.286874,-0.11515 -0.427744,-0.17993 -0.151305,-0.0496 -0.285889,-0.13375 -0.431469,-0.19727 -0.159999,-0.0771 -0.33224,-0.12084 -0.497394,-0.18534 -0.152226,-0.0455 -0.304855,-0.0909 -0.45345,-0.14634 -0.143087,-0.069 -0.291488,-0.12096 -0.437777,-0.1819 -0.116757,-0.0705 -0.230508,-0.14533 -0.348048,-0.21386 -0.124749,-0.0684 -0.256784,-0.12311 -0.382848,-0.18906 -0.136944,-0.0752 -0.282622,-0.13625 -0.409848,-0.22846 -0.129427,-0.10763 -0.25127,-0.22466 -0.391647,-0.31842 -0.189228,-0.14072 -0.394112,-0.25965 -0.573012,-0.41422 0,0 0.0783,-0.0495 0.0783,-0.0495 z"
         inkscape:connector-curvature="0" />
      <path
         style="fill:#5c2a04;fill-opacity:1;stroke:#431514;stroke-width:0.16500001;stroke-miterlimit:4;stroke-dasharray:none;stroke-opacity:1"
         id="path4729"
         d="m 97.536751,126.2006 c 0.155269,0.0785 0.321554,0.1213 0.492301,0.14878 0.179434,0.0279 0.34042,0.11196 0.513226,0.16225 0.164051,0.0637 0.335696,0.099 0.501633,0.15659 0.166584,0.0473 0.336351,0.0747 0.499862,0.13337 0.166498,0.0445 0.298466,0.15624 0.44656,0.23706 0.118717,0.0809 0.247877,0.14325 0.370287,0.21855 0.16146,0.12151 0.3327,0.23014 0.48199,0.36687 0.1375,0.13153 0.30945,0.21578 0.48712,0.27876 0.17544,0.0449 0.35514,0.0747 0.52586,0.13661 0.16703,0.0571 0.33009,0.12358 0.50189,0.16552 0.18651,0.0523 0.36982,0.11493 0.55624,0.1674 0.1226,0.0468 0.24777,0.0842 0.37542,0.11407 0,0 -0.0755,0.0522 -0.0755,0.0522 v 0 c -0.12764,-0.0304 -0.25272,-0.0683 -0.37564,-0.11441 -0.18623,-0.0529 -0.36962,-0.11506 -0.55615,-0.16708 -0.17183,-0.0427 -0.33532,-0.10898 -0.50258,-0.16621 -0.17105,-0.0608 -0.35049,-0.0908 -0.52568,-0.13671 -0.17841,-0.0642 -0.35093,-0.14919 -0.48886,-0.28198 -0.14912,-0.13612 -0.32001,-0.24457 -0.48158,-0.36505 -0.12253,-0.0747 -0.25133,-0.13757 -0.370061,-0.21818 -0.147246,-0.0814 -0.279424,-0.19166 -0.445421,-0.23604 -0.163779,-0.0577 -0.333792,-0.0848 -0.500056,-0.13315 -0.165783,-0.0575 -0.337355,-0.0929 -0.501333,-0.15625 -0.172181,-0.051 -0.333162,-0.1344 -0.512391,-0.16145 -0.171085,-0.0282 -0.336928,-0.0726 -0.493557,-0.14884 0,0 0.07643,-0.0527 0.07643,-0.0527 z"
         inkscape:connector-curvature="0" />
      <path
         style="fill:#5c2a04;fill-opacity:1;stroke:#431514;stroke-width:0.16500001;stroke-miterlimit:4;stroke-dasharray:none;stroke-opacity:1"
         id="path4731"
         d="m 95.83896,124.07984 c 0.131709,0.1332 0.227134,0.29553 0.346158,0.43921 0.09015,0.11483 0.186543,0.22636 0.29268,0.32684 0.120857,0.0796 0.23414,0.16739 0.346122,0.25872 0.140405,0.0858 0.277592,0.17891 0.425865,0.25068 0.144432,0.0404 0.265247,0.12943 0.398318,0.19374 0.137891,0.037 0.233537,0.14337 0.361723,0.20089 0.0707,0.0181 0.136664,0.0496 0.204166,0.0766 0,0 -0.0767,0.0514 -0.0767,0.0514 v 0 c -0.06757,-0.0271 -0.133928,-0.0579 -0.204419,-0.0769 -0.127513,-0.0585 -0.224191,-0.16369 -0.361857,-0.2011 -0.132675,-0.065 -0.254171,-0.15251 -0.39815,-0.19386 -0.148427,-0.0728 -0.28665,-0.16554 -0.427075,-0.25243 -0.112067,-0.0916 -0.226398,-0.17831 -0.346658,-0.25921 -0.106029,-0.10111 -0.202863,-0.21261 -0.29293,-0.32798 -0.118715,-0.14413 -0.214282,-0.30667 -0.346914,-0.43927 0,0 0.07967,-0.0473 0.07967,-0.0473 z"
         inkscape:connector-curvature="0" />
      <path
         style="fill:#5c2a04;fill-opacity:1;stroke:#431514;stroke-width:0.16500001;stroke-miterlimit:4;stroke-dasharray:none;stroke-opacity:1"
         id="path4733"
         d="m 97.819051,129.41345 c 0.137684,0.14545 0.316891,0.23665 0.481205,0.34656 0.156845,0.0831 0.282777,0.20683 0.414596,0.32272 0.0778,0.0896 0.175942,0.15739 0.273822,0.22313 0,0 -0.07783,0.0498 -0.07783,0.0498 v 0 c -0.09794,-0.0663 -0.196243,-0.13434 -0.274296,-0.22425 -0.131227,-0.11597 -0.257349,-0.23862 -0.413577,-0.3219 -0.164661,-0.10992 -0.343137,-0.20226 -0.482215,-0.34652 0,0 0.0783,-0.0495 0.0783,-0.0495 z"
         inkscape:connector-curvature="0" />
      <path
         style="fill:#5c2a04;fill-opacity:1;stroke:#431514;stroke-width:0.16500001;stroke-miterlimit:4;stroke-dasharray:none;stroke-opacity:1"
         id="path4741"
         d="m 96.589002,122.09845 c 0.11241,0.13999 0.245875,0.25239 0.394409,0.3528 0.186785,0.12341 0.38566,0.22748 0.569563,0.3554 0.162579,0.1019 0.330963,0.19448 0.495628,0.29333 0.202466,0.10429 0.41709,0.18342 0.61705,0.2923 0.140974,0.11173 0.278247,0.2265 0.431878,0.32071 0.168548,0.11696 0.347465,0.21407 0.533879,0.2992 0.155044,0.0943 0.323803,0.16163 0.486311,0.24133 0.16261,0.0608 0.31537,0.13606 0.46302,0.2267 0.13422,0.092 0.28302,0.15838 0.4232,0.24092 0.13789,0.0787 0.27378,0.16031 0.41169,0.23929 0.15962,0.0927 0.31674,0.18933 0.47318,0.28747 0.17838,0.12803 0.37252,0.23107 0.55613,0.35088 0.17203,0.10231 0.33466,0.21981 0.49636,0.33753 0.12207,0.0849 0.2587,0.14478 0.38698,0.21865 0.12551,0.0687 0.26527,0.0988 0.38811,0.17329 0.1314,0.0652 0.25153,0.14702 0.36305,0.24239 0.10548,0.10917 0.23016,0.17701 0.36126,0.24835 0.12134,0.066 0.23897,0.13857 0.35876,0.20788 0.13286,0.0781 0.23171,0.20405 0.30436,0.3381 0.0516,0.0814 0.0268,0.0401 0.0745,0.12384 0,0 -0.08,0.0461 -0.08,0.0461 v 0 c -0.0475,-0.0836 -0.0227,-0.0422 -0.0745,-0.12405 -0.0719,-0.13275 -0.16982,-0.2571 -0.30185,-0.33371 -0.11954,-0.0695 -0.23732,-0.1417 -0.35856,-0.20768 -0.1319,-0.0712 -0.25585,-0.14132 -0.36219,-0.25005 -0.1115,-0.0947 -0.23155,-0.17566 -0.36241,-0.24101 -0.12318,-0.0734 -0.26305,-0.10359 -0.38798,-0.17313 -0.12887,-0.0734 -0.26512,-0.13444 -0.38725,-0.21966 -0.16166,-0.11747 -0.32358,-0.2355 -0.49564,-0.33744 -0.1838,-0.11944 -0.37759,-0.22299 -0.55617,-0.35065 -0.15657,-0.0979 -0.31373,-0.19443 -0.47352,-0.28684 -0.13771,-0.0793 -0.27374,-0.16073 -0.41158,-0.23947 -0.14046,-0.0821 -0.28902,-0.14915 -0.42344,-0.24098 -0.14726,-0.0906 -0.30033,-0.16461 -0.46219,-0.22618 -0.162655,-0.0792 -0.33095,-0.14721 -0.486061,-0.24122 -0.186512,-0.0857 -0.365586,-0.18324 -0.53465,-0.30004 -0.153179,-0.0946 -0.290445,-0.20899 -0.431425,-0.32041 -0.200243,-0.10861 -0.414834,-0.18802 -0.617289,-0.29261 -0.164963,-0.0987 -0.333648,-0.19116 -0.495937,-0.29387 -0.183969,-0.12772 -0.382719,-0.23186 -0.569382,-0.35538 -0.148823,-0.10106 -0.282921,-0.21377 -0.396425,-0.3536 0,0 0.07914,-0.0485 0.07914,-0.0485 z"
         inkscape:connector-curvature="0" />
      <path
         style="fill:#5c2a04;fill-opacity:1;stroke:#431514;stroke-width:0.16500001;stroke-miterlimit:4;stroke-dasharray:none;stroke-opacity:1"
         id="path4743"
         d="m 99.694422,123.21145 c 0.168017,0.1001 0.351438,0.16886 0.515958,0.27516 0.15125,0.10539 0.25948,0.25581 0.38393,0.38886 0.13861,0.10476 0.29974,0.17798 0.45128,0.26313 0.15485,0.0836 0.30697,0.17184 0.46044,0.25816 0.14713,0.0727 0.30054,0.12906 0.45032,0.19567 0.13706,0.0539 0.26932,0.11961 0.40018,0.18718 0.10898,0.10077 0.24826,0.13003 0.38188,0.1803 0.0228,0.008 0.0456,0.0168 0.0684,0.0252 0,0 -0.0765,0.0516 -0.0765,0.0516 v 0 c -0.0228,-0.008 -0.0456,-0.0168 -0.0685,-0.0252 -0.13428,-0.0496 -0.27267,-0.0816 -0.38253,-0.1812 -0.13061,-0.0676 -0.263,-0.13265 -0.39972,-0.18683 -0.14994,-0.0669 -0.30385,-0.1228 -0.45085,-0.19638 -0.1532,-0.0866 -0.30534,-0.17467 -0.46003,-0.25839 -0.15247,-0.0852 -0.31493,-0.15843 -0.4531,-0.26535 -0.12357,-0.13286 -0.23156,-0.28255 -0.38259,-0.387 -0.164596,-0.10576 -0.347407,-0.17537 -0.516095,-0.27388 0,0 0.0775,-0.051 0.0775,-0.051 z"
         inkscape:connector-curvature="0" />
      <path
         style="fill:#5c2a04;fill-opacity:1;stroke:#431514;stroke-width:0.16500001;stroke-miterlimit:4;stroke-dasharray:none;stroke-opacity:1"
         id="path4745"
         d="m 99.600633,122.17978 c 0.170784,0.0588 0.330483,0.1373 0.486387,0.22766 0.0981,0.0868 0.20563,0.15687 0.31837,0.22281 0.13179,0.0748 0.25798,0.15426 0.36879,0.25821 0.12219,0.10647 0.27568,0.16583 0.41607,0.24449 0.16131,0.0712 0.29001,0.19075 0.45064,0.26293 0.0962,0.061 0.2139,0.10079 0.28641,0.1911 0.0831,0.083 0.17421,0.15971 0.26573,0.23385 0.0982,0.0885 0.18839,0.18521 0.28622,0.27398 0.12209,0.0782 0.23505,0.16693 0.34699,0.25863 0.11959,0.1094 0.20403,0.24883 0.30953,0.37057 0.0825,0.119 0.20567,0.19755 0.32257,0.27915 0.14389,0.0761 0.26572,0.17936 0.37972,0.29408 0.14655,0.13012 0.2746,0.27574 0.40361,0.42254 0.11758,0.0993 0.251,0.17935 0.37876,0.26547 0.0999,0.1119 0.23653,0.14267 0.36956,0.19417 0.13017,0.0451 0.24534,0.12516 0.3453,0.21877 0.10578,0.0873 0.23571,0.14741 0.36346,0.19672 0.14897,0.0669 0.30658,0.10841 0.44669,0.19394 0,0 -0.0775,0.0501 -0.0775,0.0501 v 0 c -0.14011,-0.0844 -0.29723,-0.1262 -0.44585,-0.19258 -0.12848,-0.0504 -0.25939,-0.11071 -0.36546,-0.1996 -0.0996,-0.0925 -0.21386,-0.17144 -0.34327,-0.21585 -0.13394,-0.051 -0.2699,-0.0847 -0.37075,-0.19591 -0.1281,-0.0868 -0.26262,-0.16659 -0.37964,-0.26771 -0.12861,-0.14693 -0.25693,-0.292 -0.40334,-0.42201 -0.11397,-0.11403 -0.23589,-0.21633 -0.37908,-0.29254 -0.11766,-0.0818 -0.24079,-0.16158 -0.32377,-0.28112 -0.10482,-0.12162 -0.18926,-0.26042 -0.30869,-0.36923 -0.11198,-0.092 -0.22591,-0.17956 -0.34744,-0.25891 -0.0974,-0.089 -0.18786,-0.18524 -0.28598,-0.27353 -0.0918,-0.0748 -0.18393,-0.15136 -0.26699,-0.23533 -0.072,-0.0883 -0.18907,-0.12758 -0.28352,-0.18784 -0.16018,-0.0733 -0.28964,-0.19236 -0.4511,-0.26355 -0.14119,-0.0785 -0.29504,-0.13886 -0.41731,-0.24634 -0.11071,-0.10308 -0.23665,-0.18204 -0.36802,-0.2563 -0.11244,-0.0663 -0.21971,-0.13659 -0.31795,-0.22302 -0.1558,-0.0905 -0.315966,-0.16789 -0.486654,-0.2268 0,0 0.0775,-0.051 0.0775,-0.051 z"
         inkscape:connector-curvature="0" />
      <path
         style="fill:#5c2a04;fill-opacity:1;stroke:#431514;stroke-width:0.16500001;stroke-miterlimit:4;stroke-dasharray:none;stroke-opacity:1"
         id="path4747"
         d="m 94.37037,120.77252 c 0.30526,0.0811 0.602045,0.18292 0.891566,0.30905 0.272682,0.1047 0.534397,0.23537 0.812138,0.32634 0.202621,0.0751 0.354786,0.22539 0.528351,0.34561 0.142389,0.0755 0.295801,0.12718 0.44483,0.18789 0.166094,0.067 0.332362,0.13277 0.49545,0.20685 0.125903,0.0674 0.231936,0.1552 0.315064,0.27111 0.100455,0.1437 0.166045,0.31003 0.220965,0.47573 0,0 -0.08047,0.0443 -0.08047,0.0443 v 0 c -0.05445,-0.16486 -0.119819,-0.33034 -0.220053,-0.47303 -0.08244,-0.11437 -0.187526,-0.20101 -0.312236,-0.26721 -0.162907,-0.0742 -0.329256,-0.1396 -0.495268,-0.20651 -0.149775,-0.0602 -0.303512,-0.11293 -0.445822,-0.1897 -0.17231,-0.12049 -0.324288,-0.26939 -0.526183,-0.34385 -0.277518,-0.0919 -0.539377,-0.22237 -0.811988,-0.32746 -0.289777,-0.12605 -0.586923,-0.22749 -0.892756,-0.30727 0,0 0.07642,-0.0519 0.07642,-0.0519 z"
         inkscape:connector-curvature="0" />
      <path
         style="fill:#5c2a04;fill-opacity:1;stroke:#431514;stroke-width:0.16500001;stroke-miterlimit:4;stroke-dasharray:none;stroke-opacity:1"
         id="path4749"
         d="m 95.195528,120.76213 c 0.157348,0.12821 0.326043,0.24282 0.496607,0.35273 0.18648,0.13086 0.379878,0.25015 0.575461,0.3667 0.158413,0.10125 0.322753,0.18097 0.496389,0.2515 0.157578,0.056 0.318855,0.10562 0.469563,0.17888 0.12899,0.0613 0.261801,0.11615 0.38655,0.18584 0.123788,0.0828 0.241267,0.1749 0.365321,0.25747 0.144093,0.0845 0.291237,0.16222 0.438556,0.24092 0.159743,0.0711 0.320348,0.14042 0.477003,0.21821 0.176436,0.11092 0.369472,0.19028 0.555919,0.28201 0.175721,0.0808 0.353501,0.16013 0.510561,0.27411 0,0 -0.07776,0.0494 -0.07776,0.0494 v 0 c -0.156956,-0.11322 -0.334106,-0.19243 -0.509335,-0.27304 -0.186645,-0.0914 -0.379205,-0.1717 -0.556035,-0.28197 -0.157038,-0.0774 -0.317848,-0.1466 -0.477567,-0.2182 -0.147319,-0.0791 -0.294794,-0.15667 -0.43875,-0.24185 -0.123777,-0.0827 -0.24158,-0.17402 -0.365306,-0.25658 -0.125039,-0.0689 -0.257212,-0.12445 -0.386162,-0.18547 -0.150954,-0.0723 -0.311596,-0.12251 -0.468996,-0.17854 -0.174129,-0.0703 -0.337867,-0.15203 -0.496791,-0.25291 -0.195707,-0.11651 -0.388767,-0.23652 -0.575572,-0.36702 -0.171032,-0.11063 -0.340555,-0.22529 -0.498797,-0.35366 0,0 0.07914,-0.0485 0.07914,-0.0485 z"
         inkscape:connector-curvature="0" />
      <path
         style="fill:#5c2a04;fill-opacity:1;stroke:#431514;stroke-width:0.16500001;stroke-miterlimit:4;stroke-dasharray:none;stroke-opacity:1"
         id="path4751"
         d="m 99.767468,119.22664 c 0.09702,0.29787 0.248672,0.57203 0.372732,0.85837 0.10483,0.24878 0.18971,0.50183 0.25704,0.7632 0.076,0.21541 0.20244,0.40448 0.34111,0.58384 0.11336,0.1591 0.22014,0.32228 0.33096,0.48316 0.0999,0.14903 0.21276,0.28764 0.32416,0.42792 0.0972,0.0996 0.18183,0.21196 0.29834,0.28988 0.12552,0.0631 0.25353,0.11924 0.37974,0.18086 0.15067,0.0513 0.28592,0.13516 0.43065,0.19929 0.16632,0.0501 0.33767,0.0851 0.50778,0.12171 0.18142,0.0679 0.37319,0.0939 0.56007,0.1396 0.18732,0.036 0.36483,0.0959 0.5373,0.17596 0.15522,0.0556 0.2935,0.0864 0.43313,0.17713 0.13412,0.0821 0.27839,0.14297 0.41966,0.21118 0.13523,0.0573 0.2668,0.12306 0.39727,0.19065 0.10907,0.0891 0.24062,0.13759 0.3669,0.19604 0.14302,0.0642 0.26902,0.1538 0.39506,0.24534 0.10173,0.0984 0.22394,0.17133 0.34069,0.25039 0.15836,0.0974 0.32533,0.17894 0.48913,0.26644 0.16318,0.0866 0.34568,0.12237 0.50684,0.21288 0.13835,0.0779 0.29077,0.13106 0.44282,0.17595 0.17815,0.0696 0.36462,0.11164 0.54786,0.16502 0.16121,0.052 0.32687,0.0986 0.48487,0.16024 0.14764,0.0633 0.29425,0.12842 0.43884,0.19851 0.1568,0.0823 0.3113,0.16734 0.46343,0.25787 0.0984,0.0483 0.0512,0.0223 0.14204,0.0775 0,0 -0.0774,0.05 -0.0774,0.05 v 0 c -0.0906,-0.0546 -0.0434,-0.0286 -0.14187,-0.0776 -0.15181,-0.0907 -0.30639,-0.17512 -0.46312,-0.25713 -0.14431,-0.0701 -0.29092,-0.13494 -0.43845,-0.19784 -0.15819,-0.0606 -0.32279,-0.10868 -0.48408,-0.15983 -0.18328,-0.0534 -0.36972,-0.0957 -0.54805,-0.16496 -0.15249,-0.0456 -0.30552,-0.0986 -0.44414,-0.17751 -0.16139,-0.0895 -0.34363,-0.12592 -0.5063,-0.21302 -0.16428,-0.0874 -0.33148,-0.16931 -0.4901,-0.26695 -0.11703,-0.0788 -0.23886,-0.15242 -0.34091,-0.25063 -0.12545,-0.0915 -0.25149,-0.1801 -0.39413,-0.2438 -0.12631,-0.0587 -0.25767,-0.10766 -0.36713,-0.19638 -0.13029,-0.0677 -0.26204,-0.13281 -0.39699,-0.19053 -0.14147,-0.0686 -0.28627,-0.12933 -0.42045,-0.21204 -0.13539,-0.0877 -0.28183,-0.12086 -0.43212,-0.17623 -0.172,-0.0798 -0.34951,-0.13824 -0.53611,-0.17458 -0.1871,-0.0448 -0.37823,-0.073 -0.56001,-0.13937 -0.17053,-0.037 -0.34281,-0.0709 -0.50907,-0.12313 -0.14454,-0.0648 -0.28045,-0.14756 -0.431,-0.19945 -0.12645,-0.0619 -0.25518,-0.11754 -0.38047,-0.18192 -0.11651,-0.0794 -0.20236,-0.19163 -0.29965,-0.2924 -0.11146,-0.14047 -0.22384,-0.27966 -0.32424,-0.42858 -0.11077,-0.1607 -0.21704,-0.32404 -0.33049,-0.48286 -0.13945,-0.18036 -0.26581,-0.37088 -0.3423,-0.58743 -0.0673,-0.26084 -0.15217,-0.51353 -0.25595,-0.76218 -0.123946,-0.28662 -0.275073,-0.56108 -0.37475,-0.85815 0,0 0.08089,-0.0446 0.08089,-0.0446 z"
         inkscape:connector-curvature="0" />
      <path
         style="fill:#5c2a04;fill-opacity:1;stroke:#431514;stroke-width:0.16500001;stroke-miterlimit:4;stroke-dasharray:none;stroke-opacity:1"
         id="path4753"
         d="m 101.93495,120.31647 c 0.10904,0.12878 0.23541,0.23949 0.35151,0.36232 0.10858,0.11266 0.19215,0.22453 0.23634,0.37569 0.0601,0.17697 0.19392,0.31259 0.31814,0.44697 0.1652,0.1681 0.30934,0.35514 0.44633,0.54643 0.13516,0.16009 0.25845,0.32953 0.41014,0.47468 0.19251,0.17749 0.38907,0.34978 0.60652,0.49616 0.17949,0.0914 0.35372,0.19489 0.53785,0.27674 0.15864,0.0487 0.29098,0.14806 0.44681,0.2045 0.17561,0.0541 0.35053,0.10374 0.53252,0.13103 0.17674,0.008 0.34777,0.0329 0.52047,0.0695 0.16547,0.0399 0.3373,0.0289 0.50365,0.0589 0.17863,0.0342 0.33023,0.14261 0.48771,0.22778 0.17401,0.10321 0.36031,0.18659 0.55166,0.25199 0.18598,0.0739 0.37865,0.12761 0.56338,0.20488 0.18004,0.0849 0.37876,0.10545 0.56287,0.1775 0.16279,0.0664 0.31575,0.1554 0.46864,0.24189 0.0973,0.0641 0.17844,0.14713 0.27756,0.20812 0,0 -0.0776,0.0501 -0.0776,0.0501 v 0 c -0.0985,-0.0616 -0.17994,-0.14413 -0.27723,-0.20791 -0.1523,-0.0866 -0.30503,-0.17515 -0.46749,-0.24103 -0.18443,-0.0709 -0.3832,-0.0923 -0.56298,-0.17771 -0.18481,-0.0766 -0.3772,-0.13072 -0.5631,-0.20437 -0.19153,-0.0663 -0.37806,-0.14982 -0.55249,-0.25325 -0.15673,-0.085 -0.30814,-0.19218 -0.48637,-0.22511 -0.16663,-0.0286 -0.33837,-0.0192 -0.50385,-0.0592 -0.17245,-0.0366 -0.34361,-0.0599 -0.51992,-0.0692 -0.1823,-0.028 -0.35777,-0.078 -0.53373,-0.13243 -0.15546,-0.0573 -0.28855,-0.15595 -0.44714,-0.20507 -0.18402,-0.0829 -0.3589,-0.18578 -0.53809,-0.27847 -0.2174,-0.14733 -0.41427,-0.32 -0.60763,-0.49731 -0.1517,-0.14589 -0.27598,-0.31519 -0.41086,-0.47621 -0.13678,-0.19099 -0.28065,-0.37776 -0.44576,-0.54544 -0.12532,-0.13533 -0.26028,-0.27194 -0.32092,-0.45028 -0.0434,-0.14986 -0.12669,-0.26023 -0.23408,-0.37196 -0.11585,-0.12305 -0.24207,-0.23365 -0.35196,-0.36173 0,0 0.0791,-0.0485 0.0791,-0.0485 z"
         inkscape:connector-curvature="0" />
      <path
         style="fill:#5c2a04;fill-opacity:1;stroke:#431514;stroke-width:0.16500001;stroke-miterlimit:4;stroke-dasharray:none;stroke-opacity:1"
         id="path4755"
         d="m 103.9983,120.97299 c 0.0991,0.14262 0.24779,0.2307 0.3933,0.31881 0.11647,0.0702 0.25066,0.0944 0.36681,0.1655 0.13499,0.06 0.24993,0.15209 0.37763,0.22456 0.14511,0.0493 0.28356,0.10586 0.41731,0.18087 0.13601,0.0744 0.25757,0.16843 0.38042,0.26196 0.11692,0.10135 0.19749,0.23475 0.29849,0.35044 0.0687,0.12431 0.17573,0.21715 0.25845,0.33034 0.0942,0.114 0.22796,0.18741 0.35174,0.26535 0.15325,0.0769 0.32388,0.10655 0.48413,0.1666 0.16062,0.0597 0.31286,0.14085 0.46364,0.22199 0.13065,0.0746 0.26802,0.12673 0.40858,0.17887 0.14779,0.0701 0.29224,0.13586 0.45275,0.17132 0.15886,0.0489 0.31922,0.0908 0.47792,0.14001 0.11128,0.0295 0.0576,0.0118 0.16133,0.0527 0,0 -0.0765,0.0513 -0.0765,0.0513 v 0 c -0.10323,-0.04 -0.0497,-0.0224 -0.16089,-0.0522 -0.1585,-0.0491 -0.31875,-0.0909 -0.47749,-0.1394 -0.16049,-0.0364 -0.30522,-0.10282 -0.45351,-0.17229 -0.1412,-0.0517 -0.27819,-0.10562 -0.40941,-0.17989 -0.15026,-0.0812 -0.30232,-0.16174 -0.46261,-0.22114 -0.16097,-0.0594 -0.33247,-0.0891 -0.48546,-0.168 -0.12459,-0.0789 -0.25943,-0.15257 -0.35374,-0.26819 -0.0827,-0.11281 -0.18922,-0.20587 -0.25792,-0.32975 -0.10029,-0.11548 -0.18085,-0.24817 -0.29755,-0.34883 -0.12234,-0.0936 -0.244,-0.18681 -0.37977,-0.26084 -0.13369,-0.075 -0.27295,-0.12976 -0.4172,-0.18101 -0.12745,-0.0731 -0.24328,-0.16394 -0.37803,-0.22459 -0.1165,-0.0698 -0.25087,-0.0943 -0.36645,-0.16574 -0.14589,-0.089 -0.29452,-0.17799 -0.39511,-0.32029 0,0 0.0791,-0.0485 0.0791,-0.0485 z"
         inkscape:connector-curvature="0" />
      <path
         style="fill:#5c2a04;fill-opacity:1;stroke:#431514;stroke-width:0.16500001;stroke-miterlimit:4;stroke-dasharray:none;stroke-opacity:1"
         id="path4757"
         d="m 110.09456,126.31894 c 0.12864,0.10488 0.24614,0.22215 0.37555,0.32622 0.0951,0.0749 0.20528,0.12406 0.3078,0.18592 0.11927,0.0506 0.22914,0.0928 0.3342,0.17029 0.0949,0.0443 0.1591,0.12104 0.22774,0.19593 0,0 -0.0792,0.0481 -0.0792,0.0481 v 0 c -0.0681,-0.0746 -0.13255,-0.15005 -0.22663,-0.19449 -0.10475,-0.0772 -0.21594,-0.1172 -0.3339,-0.16942 -0.10348,-0.0612 -0.2126,-0.11241 -0.30814,-0.18725 -0.12922,-0.10482 -0.24711,-0.22225 -0.37653,-0.32676 0,0 0.0791,-0.0485 0.0791,-0.0485 z"
         inkscape:connector-curvature="0" />
      <path
         style="fill:#5c2a04;fill-opacity:1;stroke:#431514;stroke-width:0.16500001;stroke-miterlimit:4;stroke-dasharray:none;stroke-opacity:1"
         id="path4759"
         d="m 109.35411,124.79377 c 0.14242,0.0431 0.29178,0.0507 0.43607,0.0833 0.1524,0.0478 0.30699,0.10061 0.45458,0.16303 0.14014,0.0641 0.29221,0.0872 0.43791,0.13482 0.13759,0.0342 0.2624,0.1038 0.36982,0.19524 0.12685,0.0695 0.20592,0.16153 0.28588,0.27836 0.0992,0.12638 0.22104,0.23299 0.33447,0.34629 0.11483,0.0944 0.20848,0.21212 0.33311,0.294 0.12881,0.0745 0.22115,0.18274 0.31834,0.2921 0.0935,0.0999 0.1658,0.21377 0.24315,0.32536 0.0411,0.0522 0.022,0.0251 0.0572,0.0814 0,0 -0.0802,0.0467 -0.0802,0.0467 v 0 c -0.0347,-0.0556 -0.0159,-0.0285 -0.0568,-0.0811 -0.0769,-0.11145 -0.14896,-0.22497 -0.24225,-0.3246 -0.0966,-0.10891 -0.18919,-0.21574 -0.3172,-0.28998 -0.12439,-0.0831 -0.21903,-0.20046 -0.33385,-0.29571 -0.11395,-0.11359 -0.23615,-0.22073 -0.33564,-0.34759 -0.0794,-0.11621 -0.159,-0.20653 -0.28462,-0.27623 -0.10718,-0.0903 -0.23106,-0.15837 -0.36772,-0.19234 -0.14586,-0.0475 -0.29832,-0.0706 -0.43831,-0.13546 -0.1476,-0.0614 -0.30098,-0.11562 -0.45356,-0.16172 -0.14478,-0.0314 -0.29401,-0.0408 -0.4368,-0.0831 0,0 0.0764,-0.0527 0.0764,-0.0527 z"
         inkscape:connector-curvature="0" />
      <path
         style="fill:#5c2a04;fill-opacity:1;stroke:#431514;stroke-width:0.16500001;stroke-miterlimit:4;stroke-dasharray:none;stroke-opacity:1"
         id="path4776"
         d="m 92.847322,131.07761 c 0.153241,0.0174 0.267258,0.11847 0.392286,0.1978 0.117245,0.0751 0.197641,0.18284 0.268555,0.29993 0.09836,0.11791 0.165689,0.25657 0.260661,0.37684 0.100062,0.10254 0.162313,0.2222 0.228457,0.34694 0.07548,0.11775 0.202779,0.13495 0.323294,0.17776 0.128602,0.0355 0.203797,0.14721 0.320049,0.20734 0,0 -0.07729,0.0506 -0.07729,0.0506 v 0 c -0.115051,-0.0609 -0.191182,-0.1713 -0.319399,-0.20616 -0.123191,-0.0425 -0.250579,-0.0641 -0.326822,-0.1837 -0.06584,-0.12427 -0.127968,-0.2433 -0.227585,-0.34553 -0.09485,-0.1208 -0.162696,-0.25954 -0.26113,-0.37786 -0.07047,-0.11574 -0.15014,-0.22232 -0.266659,-0.29613 -0.124225,-0.0796 -0.2379,-0.17877 -0.39085,-0.19516 0,0 0.07643,-0.0527 0.07643,-0.0527 z"
         inkscape:connector-curvature="0" />
      <path
         style="fill:#5c2a04;fill-opacity:1;stroke:#431514;stroke-width:0.16500001;stroke-miterlimit:4;stroke-dasharray:none;stroke-opacity:1"
         id="path4778"
         d="m 91.346059,131.25303 c 0.148907,-0.0187 0.246182,0.0388 0.358754,0.1284 0.10856,0.0843 0.200545,0.17995 0.290096,0.28314 0.100607,0.0907 0.188423,0.19042 0.288199,0.2823 0.08673,0.10111 0.166711,0.20819 0.260045,0.30342 0.107389,0.0661 0.216646,0.13818 0.336341,0.18096 0.08489,0.02 0.04344,0.007 0.124404,0.0377 0,0 -0.0767,0.0517 -0.0767,0.0517 v 0 c -0.08065,-0.0293 -0.03921,-0.0167 -0.124432,-0.0376 -0.120233,-0.0444 -0.23112,-0.11624 -0.338491,-0.18451 -0.09291,-0.0954 -0.173055,-0.20207 -0.259779,-0.303 -0.100192,-0.0919 -0.187826,-0.19228 -0.288707,-0.28321 -0.08905,-0.10288 -0.181292,-0.19756 -0.289128,-0.28172 -0.111834,-0.0886 -0.208717,-0.14144 -0.355745,-0.12294 0,0 0.07514,-0.0546 0.07514,-0.0546 z"
         inkscape:connector-curvature="0" />
      <path
         style="fill:#5c2a04;fill-opacity:1;stroke:#431514;stroke-width:0.16500001;stroke-miterlimit:4;stroke-dasharray:none;stroke-opacity:1"
         id="path4780"
         d="m 91.815648,129.76457 c 0.129778,0.0293 0.257345,0.0569 0.371884,0.12696 0.09317,0.079 0.212323,0.11192 0.308988,0.18548 0.109369,0.0667 0.212027,0.14186 0.315109,0.21789 0.09931,0.0924 0.190084,0.18742 0.315292,0.2433 0.140503,0.0339 0.255334,0.12431 0.378099,0.19681 0.119284,0.0827 0.216053,0.1928 0.340879,0.26734 0.09104,0.0625 0.143985,0.15138 0.245419,0.19888 0.107863,0.0655 0.178088,0.17612 0.264524,0.26774 0.09427,0.0964 0.202018,0.17326 0.315454,0.24547 0.133469,0.0566 0.248501,0.14546 0.36967,0.22368 0.113878,0.0278 0.192863,0.10613 0.288934,0.16636 0.06498,0.0569 0.133063,0.10692 0.208766,0.1485 0,0 -0.07792,0.0508 -0.07792,0.0508 v 0 c -0.07534,-0.0423 -0.143203,-0.0929 -0.208667,-0.14919 -0.09568,-0.0609 -0.176182,-0.13656 -0.289063,-0.16641 -0.120771,-0.0787 -0.236228,-0.16664 -0.369444,-0.22375 -0.113757,-0.073 -0.222151,-0.15019 -0.316699,-0.24737 -0.08583,-0.0907 -0.155161,-0.20082 -0.262818,-0.26478 -0.100648,-0.0489 -0.15493,-0.13709 -0.24586,-0.19968 -0.123979,-0.0757 -0.221056,-0.18515 -0.340567,-0.26742 -0.122827,-0.0721 -0.237264,-0.16183 -0.377656,-0.19591 -0.125015,-0.0573 -0.216521,-0.15238 -0.316445,-0.24489 -0.102953,-0.0763 -0.206312,-0.15047 -0.315243,-0.21791 -0.09684,-0.0725 -0.215665,-0.10573 -0.30841,-0.18472 -0.114449,-0.0684 -0.241694,-0.0954 -0.370658,-0.12445 0,0 0.07643,-0.0527 0.07643,-0.0527 z"
         inkscape:connector-curvature="0" />
      <path
         id="path4782"
         transform="matrix(0.26458333,0,0,0.26458333,79.164889,118.13071)"
         style="fill:#5c2a04;fill-opacity:1;stroke:#431514;stroke-width:0.62362206;stroke-miterlimit:4;stroke-dasharray:none;stroke-opacity:1"
         d="m 7.0117188,25.275391 -0.2988282,0.183593 c 0.4373216,0.471723 0.816436,0.985295 1.1738282,1.519532 0.3347074,0.44451 0.6239229,0.893133 1.0058593,1.298828 0.2956573,0.444548 0.7948282,0.642393 1.1660159,0.998047 0.368126,0.275338 0.705651,0.522243 1.005859,0.871093 0.249181,0.275604 0.555806,0.496005 0.871094,0.691407 0.229017,0.265398 0.504045,0.388119 0.837891,0.464843 0.422751,0.02381 0.822144,0.115508 1.228515,0.228516 0.491558,0.132661 0.997797,0.162743 1.503906,0.181641 0.103106,0.0038 0.205489,0.0056 0.308594,0.0078 l 0.283203,-0.205078 c -0.102878,-0.0038 -0.205715,-0.0056 -0.308594,-0.0078 -0.503882,-0.01814 -1.008106,-0.04577 -1.498046,-0.175781 -0.406848,-0.11263 -0.804015,-0.213397 -1.228516,-0.228515 -0.332591,-0.07287 -0.607036,-0.18711 -0.832031,-0.455078 -0.314113,-0.191812 -0.616768,-0.411846 -0.865235,-0.683594 -0.301682,-0.349871 -0.635,-0.600543 -1.007812,-0.873047 C 9.9881431,28.733913 9.4865874,28.540818 9.1914062,28.095703 8.8109137,27.691218 8.5211189,27.245997 8.1875,26.802734 7.8286906,26.266911 7.4461339,25.752216 7.0117188,25.275391 Z" />
      <path
         style="fill:#5c2a04;fill-opacity:1;stroke:#431514;stroke-width:0.16500001;stroke-miterlimit:4;stroke-dasharray:none;stroke-opacity:1"
         id="path4784"
         d="m 87.511319,125.46876 c -0.198766,-0.10913 -0.378385,-0.24611 -0.558874,-0.38207 -0.146757,-0.10902 -0.305141,-0.19966 -0.458266,-0.29983 -0.117325,-0.0956 -0.24593,-0.17687 -0.376618,-0.253 -0.09793,-0.0587 -0.156152,-0.14597 -0.220563,-0.23558 -0.06724,-0.06 -0.127078,-0.11398 -0.183405,-0.18548 -0.10897,-0.0809 -0.203695,-0.17788 -0.30543,-0.26716 -0.09378,-0.0844 -0.1695,-0.18675 -0.26877,-0.26475 -0.04338,-0.0462 -0.02415,-0.0206 -0.05706,-0.0774 0,0 0.08035,-0.0464 0.08035,-0.0464 v 0 c 0.03166,0.0545 0.01308,0.0299 0.05527,0.0744 0.09869,0.0789 0.174666,0.18102 0.268599,0.26542 0.101958,0.0899 0.197921,0.1864 0.306739,0.26834 0.05625,0.0715 0.11769,0.12436 0.183563,0.18587 0.06355,0.0887 0.121247,0.17468 0.218307,0.23241 0.130411,0.0768 0.259,0.1581 0.376461,0.25365 0.15307,0.10051 0.311957,0.19073 0.458388,0.30049 0.179623,0.13601 0.358567,0.27317 0.558203,0.37957 0,0 -0.0769,0.0515 -0.0769,0.0515 z"
         inkscape:connector-curvature="0" />
      <path
         style="fill:#5c2a04;fill-opacity:1;stroke:#431514;stroke-width:0.16500001;stroke-miterlimit:4;stroke-dasharray:none;stroke-opacity:1"
         id="path4788"
         d="m 88.689589,125.11307 c 0.02459,0.11828 0.06309,0.25358 0.0059,0.36793 -0.129142,0.13967 -0.143532,0.10383 -0.191059,-0.0334 -0.08058,-0.1276 -0.141569,-0.2622 -0.151406,-0.41392 -0.0011,-0.14122 0.0643,-0.20571 0.205147,-0.245 0.08481,0.009 0.100468,0.0839 0.113241,0.15573 0.01448,0.0559 0.0011,0.10218 -0.01714,0.15481 0,0 -0.08413,0.0393 -0.08413,0.0393 v 0 c 0.01839,-0.0516 0.03365,-0.0952 0.01915,-0.15051 -0.01129,-0.066 -0.02362,-0.14092 -0.10478,-0.14251 -0.0116,0.004 -0.04054,0.0219 -0.03481,0.0111 0.0085,-0.0159 0.0278,-0.0247 0.04502,-0.0302 0.01087,-0.003 -0.01755,0.0148 -0.02469,0.0237 -0.03305,0.0412 -0.03142,0.0907 -0.03503,0.14115 0.0079,0.15122 0.07045,0.28464 0.150456,0.41151 0.0096,0.027 0.04293,0.10965 0.04279,0.10983 -0.09177,0.11452 -0.0602,0.0253 -0.01762,0.006 0.06383,-0.10824 0.02057,-0.24756 -0.0027,-0.3618 0,0 0.08167,-0.0442 0.08167,-0.0442 z"
         inkscape:connector-curvature="0" />
      <path
         style="fill:#5c2a04;fill-opacity:1;stroke:#431514;stroke-width:0.16500001;stroke-miterlimit:4;stroke-dasharray:none;stroke-opacity:1"
         id="path4790"
         d="m 94.628659,128.62695 c 0.166821,0.036 0.324532,0.10401 0.490888,0.14592 0.140149,0.0139 0.27102,0.0634 0.406044,0.0995 0.115621,0.046 0.213026,0.12386 0.311746,0.19801 0.08228,0.0886 0.183923,0.15312 0.272539,0.23512 0.08633,0.0518 0.180952,0.0897 0.268578,0.14037 0.128099,0.0573 0.235728,0.15038 0.335867,0.24704 0.09469,0.0687 0.186593,0.14395 0.289302,0.20105 0.04694,0.0394 0.0227,0.0204 0.07278,0.0571 0,0 -0.0784,0.0497 -0.0784,0.0497 v 0 c -0.04995,-0.0368 -0.02593,-0.0181 -0.07215,-0.0561 -0.10277,-0.0582 -0.195522,-0.13356 -0.290281,-0.20323 -0.100048,-0.096 -0.206839,-0.18836 -0.334767,-0.24504 -0.08854,-0.0502 -0.184004,-0.0882 -0.269907,-0.14203 -0.08809,-0.082 -0.189521,-0.14631 -0.271676,-0.23453 -0.09783,-0.0735 -0.194774,-0.15061 -0.309916,-0.19499 -0.1347,-0.0367 -0.265831,-0.0845 -0.405595,-0.0996 -0.165598,-0.0424 -0.323033,-0.11163 -0.490182,-0.1436 0,0 0.07514,-0.0546 0.07514,-0.0546 z"
         inkscape:connector-curvature="0" />
      <path
         style="fill:#5c2a04;fill-opacity:1;stroke:#431514;stroke-width:0.16500001;stroke-miterlimit:4;stroke-dasharray:none;stroke-opacity:1"
         id="path4792"
         d="m 94.91067,128.92047 c 0.125726,0.0409 0.254547,0.0898 0.371755,0.15222 0.106812,0.0648 0.228302,0.0912 0.343887,0.1351 0.134289,0.0307 0.251979,0.0687 0.368424,0.14229 0.106631,0.0656 0.228414,0.0888 0.348925,0.11343 0.0034,0.002 0.01365,0.004 0.01017,0.006 -0.03687,0.0176 -0.07374,0.0395 -0.114319,0.0442 -0.01836,0.002 -0.142523,-0.12327 -0.160566,-0.1399 -0.07873,-0.0662 -0.171967,-0.10719 -0.247619,-0.17795 -0.07708,-0.0673 -0.172219,-0.10593 -0.27107,-0.12746 -0.09275,-0.014 -0.186837,-0.0127 -0.280372,-0.0128 0,0 0.07497,-0.0545 0.07497,-0.0545 v 0 c 0.09403,5e-5 0.18869,-0.001 0.281768,0.0143 0.09989,0.023 0.195717,0.0634 0.27361,0.13165 0.07604,0.0699 0.169604,0.11092 0.247435,0.17804 0.04153,0.0384 0.0784,0.079 0.124348,0.11207 0.01115,0.008 0.03494,0.01 0.0339,0.0234 -0.0018,0.0241 -0.02685,0.0402 -0.04028,0.0603 -0.0028,-0.001 -0.0056,-0.003 -0.0084,-0.004 -0.121083,-0.0255 -0.243274,-0.0502 -0.350251,-0.11653 -0.115864,-0.0729 -0.234664,-0.1084 -0.367429,-0.14073 -0.115921,-0.0438 -0.237745,-0.0705 -0.34457,-0.13601 -0.117326,-0.0612 -0.244767,-0.11136 -0.370787,-0.15019 0,0 0.07643,-0.0527 0.07643,-0.0527 z"
         inkscape:connector-curvature="0" />
      <path
         style="fill:#5c2a04;fill-opacity:1;stroke:#431514;stroke-width:0.16500001;stroke-miterlimit:4;stroke-dasharray:none;stroke-opacity:1"
         id="path4794"
         d="m 94.796537,128.86375 c 0.08078,0.1304 0.200468,0.22628 0.340646,0.28538 0.05168,0.0232 0.09375,0.0523 0.132974,0.0923 0,0 -0.07916,0.0485 -0.07916,0.0485 v 0 c -0.0386,-0.0387 -0.08026,-0.0671 -0.130755,-0.0895 -0.141318,-0.0615 -0.261801,-0.15916 -0.344324,-0.29076 0,0 0.08061,-0.0459 0.08061,-0.0459 z"
         inkscape:connector-curvature="0" />
      <path
         style="fill:#5c2a04;fill-opacity:1;stroke:#431514;stroke-width:0.16500001;stroke-miterlimit:4;stroke-dasharray:none;stroke-opacity:1"
         id="path4796"
         d="m 97.068342,129.02634 c 0.151781,0.0614 0.296055,0.13746 0.440094,0.21474 0,0 -0.0768,0.0502 -0.0768,0.0502 v 0 c -0.144044,-0.0775 -0.288676,-0.15309 -0.440788,-0.21396 0,0 0.0775,-0.051 0.0775,-0.051 z"
         inkscape:connector-curvature="0" />
      <path
         style="fill:#5c2a04;fill-opacity:1;stroke:#431514;stroke-width:0.16500001;stroke-miterlimit:4;stroke-dasharray:none;stroke-opacity:1"
         id="path4798"
         d="m 96.682791,126.22515 c 0.124695,0.15427 0.208733,0.33472 0.3219,0.49628 0.111407,0.14681 0.198967,0.30778 0.287293,0.46887 0.09226,0.12626 0.191435,0.24898 0.301741,0.36007 0.100118,0.12561 0.245755,0.19928 0.372941,0.29387 0.159716,0.11232 0.331906,0.20574 0.485161,0.32701 0.117638,0.10077 0.243465,0.19117 0.364795,0.28731 0.140578,0.10519 0.288659,0.19901 0.449875,0.2689 0.151269,0.0601 0.311054,0.0775 0.472013,0.0861 0.114545,-0.004 0.220656,0.0439 0.32972,0.0712 0.0948,0.0137 0.18279,0.0592 0.25513,0.12087 0.0969,0.0556 0.20728,0.0933 0.31412,0.12823 0.0791,0.0124 0.14912,0.0428 0.21925,0.0794 0,0 -0.0771,0.0506 -0.0771,0.0506 v 0 c -0.0701,-0.0358 -0.14031,-0.0649 -0.21864,-0.0781 -0.10762,-0.0357 -0.21976,-0.0727 -0.31649,-0.13095 -0.0719,-0.0607 -0.15913,-0.10349 -0.252784,-0.11737 -0.108335,-0.0281 -0.214173,-0.0745 -0.328248,-0.07 -0.161632,-0.009 -0.321918,-0.0278 -0.473499,-0.0891 -0.161511,-0.0709 -0.310463,-0.16483 -0.451419,-0.27072 -0.121573,-0.0959 -0.246988,-0.18668 -0.364694,-0.28737 -0.153352,-0.12094 -0.325173,-0.21467 -0.48478,-0.32692 -0.127889,-0.0945 -0.27389,-0.16845 -0.374082,-0.29481 -0.110518,-0.11204 -0.210614,-0.23511 -0.302921,-0.36237 -0.088,-0.1609 -0.175284,-0.32161 -0.286476,-0.46818 -0.112604,-0.16136 -0.196225,-0.34142 -0.321988,-0.49434 0,0 0.07914,-0.0485 0.07914,-0.0485 z"
         inkscape:connector-curvature="0" />
      <path
         style="fill:#5c2a04;fill-opacity:1;stroke:#431514;stroke-width:0.16500001;stroke-miterlimit:4;stroke-dasharray:none;stroke-opacity:1"
         id="path4800"
         d="m 91.310753,123.77278 c -0.141463,-0.0954 -0.271932,-0.20014 -0.387329,-0.3266 -0.105597,-0.11601 -0.222858,-0.22431 -0.313661,-0.35267 -0.07233,-0.10827 -0.167711,-0.19763 -0.241173,-0.30469 -0.06532,-0.0855 -0.152539,-0.14181 -0.242888,-0.198 -0.05707,-0.0497 -0.117631,-0.0949 -0.172562,-0.14688 0,0 0.07888,-0.0487 0.07888,-0.0487 v 0 c 0.05474,0.0513 0.114395,0.0967 0.17147,0.1454 0.09115,0.0572 0.179486,0.11416 0.245098,0.20113 0.0731,0.10718 0.168506,0.19657 0.240582,0.30487 0.09068,0.12797 0.207875,0.2358 0.31302,0.35172 0.115517,0.12634 0.246219,0.23047 0.387705,0.32588 0,0 -0.07914,0.0485 -0.07914,0.0485 z"
         inkscape:connector-curvature="0" />
      <path
         style="fill:#5c2a04;fill-opacity:1;stroke:#431514;stroke-width:0.16500001;stroke-miterlimit:4;stroke-dasharray:none;stroke-opacity:1"
         id="path4802"
         d="m 91.055477,122.19224 c 0.107366,0.0968 0.22337,0.17027 0.360712,0.21431 0.131766,0.0419 0.228738,0.13666 0.332599,0.22218 0.06625,0.084 0.161259,0.13433 0.248635,0.19309 0.0738,0.0615 0.147877,0.11215 0.237528,0.14911 0.09248,0.0203 0.165743,0.0769 0.230627,0.14309 0.0071,0.0118 0.01411,0.0236 0.02116,0.0354 0,0 -0.08044,0.0466 -0.08044,0.0466 v 0 c -0.0067,-0.0112 -0.01337,-0.0223 -0.02005,-0.0335 -0.06433,-0.0657 -0.137264,-0.11907 -0.228576,-0.13999 -0.08951,-0.0379 -0.164036,-0.0895 -0.238379,-0.15076 -0.0874,-0.0592 -0.182563,-0.10962 -0.249003,-0.19391 -0.102823,-0.0853 -0.199444,-0.17867 -0.330617,-0.21933 -0.138053,-0.0456 -0.254736,-0.1208 -0.363333,-0.2178 0,0 0.07914,-0.0485 0.07914,-0.0485 z"
         inkscape:connector-curvature="0" />
      <path
         style="fill:#5c2a04;fill-opacity:1;stroke:#431514;stroke-width:0.16500001;stroke-miterlimit:4;stroke-dasharray:none;stroke-opacity:1"
         id="path4804"
         d="m 96.338897,122.38555 c -0.130326,-0.0235 -0.248178,-0.0837 -0.37145,-0.129 -0.117494,-0.0208 -0.226034,-0.0702 -0.340057,-0.10345 0,0 0.07647,-0.0523 0.07647,-0.0523 v 0 c 0.113894,0.034 0.223103,0.0819 0.340372,0.10398 0.122857,0.0458 0.240846,0.10512 0.371092,0.12802 0,0 -0.07643,0.0527 -0.07643,0.0527 z"
         inkscape:connector-curvature="0" />
      <path
         style="fill:#5c2a04;fill-opacity:1;stroke:#431514;stroke-width:0.16500001;stroke-miterlimit:4;stroke-dasharray:none;stroke-opacity:1"
         id="path4806"
         d="m 100.56925,121.04797 c -0.12755,-0.10975 -0.25685,-0.21862 -0.37576,-0.3379 -0.11323,-0.11499 -0.226294,-0.23117 -0.346364,-0.33916 -0.118116,-0.10318 -0.257192,-0.17868 -0.357984,-0.30041 -0.09162,-0.10224 -0.164019,-0.22012 -0.275422,-0.30242 -0.143822,-0.0517 -0.2674,-0.10833 -0.3764,-0.21809 -0.07872,-0.087 -0.160158,-0.15856 -0.255,-0.2261 -0.08796,-0.0859 -0.163641,-0.18287 -0.250955,-0.26927 -0.110694,-0.0933 -0.235716,-0.15925 -0.367298,-0.21793 0,0 0.07672,-0.051 0.07672,-0.051 v 0 c 0.132367,0.0594 0.258349,0.12598 0.369399,0.22055 0.0867,0.0863 0.162335,0.18269 0.250318,0.26786 0.09569,0.0674 0.17603,0.14099 0.255589,0.22761 0.108666,0.10927 0.233844,0.16266 0.375715,0.21691 0.111193,0.0836 0.184751,0.20125 0.276472,0.30434 0.100723,0.12105 0.239894,0.19605 0.357279,0.29929 0.119841,0.10849 0.233141,0.22455 0.346491,0.33965 0.11906,0.11921 0.24811,0.22848 0.37634,0.33753 0,0 -0.0791,0.0485 -0.0791,0.0485 z"
         inkscape:connector-curvature="0" />
      <path
         style="fill:#5c2a04;fill-opacity:1;stroke:#43151a;stroke-width:0.16500001;stroke-miterlimit:4;stroke-dasharray:none;stroke-opacity:1"
         id="path4810"
         d="m 102.15379,120.50978 c -0.15266,-0.0136 -0.25802,-0.11566 -0.37693,-0.19794 -0.0859,-0.0435 -0.11509,-0.13858 -0.18809,-0.19759 -0.0729,-0.0712 -0.16465,-0.0996 -0.25454,-0.14188 -0.0737,-0.0606 -0.14288,-0.12934 -0.20245,-0.20417 -0.0331,-0.0883 -0.11648,-0.13159 -0.16966,-0.20414 -0.047,-0.0831 -0.11191,-0.15188 -0.18572,-0.21164 -0.0617,-0.0773 -0.15355,-0.11999 -0.22838,-0.18347 -0.083,-0.0728 -0.1781,-0.11388 -0.28486,-0.13602 -0.096,-4.6e-4 -0.17913,-0.0229 -0.267443,-0.057 -0.08209,-0.0184 -0.15318,-0.0511 -0.227364,-0.0898 -0.07837,-0.0441 -0.171453,-0.0458 -0.259119,-0.0501 -0.141803,-0.004 -0.283695,-0.003 -0.425541,-0.003 0,0 0.07461,-0.0542 0.07461,-0.0542 v 0 c 0.142043,-2.4e-4 0.284134,-0.001 0.426129,0.003 0.08894,0.005 0.182556,0.008 0.261683,0.0532 0.07372,0.0386 0.145629,0.0692 0.226725,0.089 0.0877,0.0341 0.17168,0.0529 0.26656,0.0558 0.10759,0.0235 0.2034,0.0666 0.28716,0.13996 0.0752,0.0629 0.16671,0.10605 0.22862,0.18315 0.0738,0.0607 0.13942,0.13013 0.18675,0.21374 0.0533,0.072 0.13685,0.1156 0.16966,0.20374 0.0586,0.0737 0.12662,0.14191 0.19982,0.20074 0.091,0.0418 0.18226,0.0725 0.25607,0.14368 0.0718,0.0598 0.10261,0.15302 0.18751,0.19709 0.1179,0.0828 0.22313,0.18209 0.37523,0.19502 0,0 -0.0764,0.0527 -0.0764,0.0527 z"
         inkscape:connector-curvature="0" />
      <path
         id="path4838"
         style="fill:#280b0b;fill-opacity:0.70980392;stroke:none;stroke-width:0.35344827px;stroke-linecap:butt;stroke-linejoin:miter;stroke-opacity:1"
         d="m 81.898055,127.33966 c -0.02468,0.009 0.02468,0.0287 0,0.0372 -3.17e-4,1.1e-4 -0.0012,-10e-5 -0.0016,0 -0.0031,-0.0116 -0.09878,-0.0116 -0.101802,0 -4.8e-5,-2e-4 -0.0016,2.2e-4 -0.0016,0 h -0.104892 c -0.279165,0 0.03524,-0.0128 -0.104386,0.0372 -0.02469,0.008 -0.08022,-0.008 -0.104903,0 -0.0035,10e-4 0,0.10367 0,0.1132 v 0.26194 c 0,0.0124 0.02468,0.0287 0,0.0372 -0.02468,0.008 -0.07971,-0.008 -0.104387,0 -0.02468,0.009 0,0.0254 0,0.0377 v 0.22476 c 0,0.0942 0.02566,0.004 -0.08733,0.0344 v 0.34178 0.37186 0.40522 0.41834 0.42053 0.42053 0.42108 0.42107 0.27452 c 0.02734,0.0109 0.06885,0.0179 0.08733,0.0312 0.0329,0.0236 0.17639,0.31381 0.20929,0.33741 0.02207,0.0158 -0.127083,-0.16571 -0.104903,-0.14984 0.01103,0.008 -0.08101,0.0546 -0.19172,0.10828 v 0.14054 c 0.149854,-0.052 0.296623,-0.10431 0.296623,-0.0979 0.0097,0.0134 0.01359,0.0135 0.02119,0.023 -0.05352,0.0169 -0.191281,0.0514 -0.31781,0.0837 v 0.0913 0.42108 0.24116 c 0.168775,0.0496 0.351691,0.0951 0.37052,0.105 0.0055,-0.0128 0.01865,-0.0394 0.02429,-0.0525 3.7e-4,0.003 0.0012,0.006 0.0026,0.01 -0.0091,0.0199 -0.01045,0.024 -0.02015,0.0448 8.1e-4,0.001 0.02452,0.007 0.02377,0.007 v 0.22475 0.0377 c 0,0.0124 0.02468,0.0287 0,0.0372 -0.02469,0.008 -0.07971,-0.008 -0.104386,0 -0.02468,0.009 0.02468,0.0287 0,0.0372 -0.02018,0.007 -0.05816,-7.3e-4 -0.08578,0 0.02504,-0.0414 0.09084,-0.1779 0.166915,-0.34343 -2.99e-4,0 -0.0068,-0.002 -0.0072,-0.002 -0.03625,0.0839 -0.14579,0.29981 -0.16123,0.34616 h 5.16e-4 c -0.0031,0.005 -0.01701,0.0364 -0.01809,0.0372 0,0.0266 0.01367,0.21524 0,0.22476 -0.02208,0.0158 -0.08222,0.0219 -0.104386,0.0377 -0.02839,0.0203 0.02866,0.13915 0,0.14984 -0.02054,0.007 -0.05961,-0.001 -0.08733,0 v 0.10664 0.3735 0.34944 0.34779 0.33249 0.0525 c 0,0.13192 -0.01801,0.24455 -0.04754,0.34069 0.01007,0.003 0.01685,0.004 0.02997,0.009 0.02468,0.009 -0.02468,0.0287 0,0.0372 0.02469,0.008 0.08022,-0.008 0.104904,0 0.02468,0.009 -0.01566,0.0271 0,0.0377 0.02184,0.0156 0.08064,0.0217 0.103352,0.0372 0.08949,-0.077 0.209702,-0.14306 0.366903,-0.18647 0.07634,-0.0211 0.150248,-0.0488 0.230994,-0.0487 0.05333,-1.6e-4 0.106361,-4e-4 0.15968,-0.001 0.04523,-7.8e-4 0.09082,-0.002 0.135909,-0.005 0.01844,-0.002 0.06813,-0.007 0.07131,-0.005 0.0536,-0.0207 0.08445,-0.0409 0.121957,-0.0618 0.0015,-0.0273 0.0016,-0.0548 0.0036,-0.082 0.01023,-0.1162 0.02358,-0.23179 0.04754,-0.3467 0.01684,-0.079 0.02855,-0.141 0.02015,-0.22968 v -0.29093 h -5.29e-4 c 0,-0.13697 0.02699,-0.25128 0.06976,-0.3478 -0.0048,-0.019 -0.01037,-0.0382 -0.01447,-0.0574 -0.02101,-0.0967 -0.06232,-0.19057 -0.06201,-0.28984 -0.0029,-0.0447 -0.0048,-0.0892 -0.01705,-0.13288 -0.02558,-0.10471 -0.0666,-0.20886 -0.05839,-0.31718 v -0.26139 c 0,-0.16285 0.03715,-0.29513 0.0956,-0.40084 -0.07464,-0.12617 -0.106589,-0.2984 -0.06408,-0.51459 0.01231,-0.0626 0.02606,-0.12468 0.04341,-0.18648 0.02346,-0.0884 0.04188,-0.17058 0.04858,-0.26413 0.01508,-0.0911 0.04288,-0.1811 0.04547,-0.27179 0.0033,-0.13748 0.0072,-0.27512 0.01912,-0.41232 0.01329,-0.1364 0.02978,-0.27291 0.06873,-0.40631 0.002,-0.007 0.0046,-0.0117 0.0067,-0.0191 -0.087,-0.1036 -0.179119,-0.20551 -0.188619,-0.33741 -0.0047,-0.0312 -0.0081,-0.0631 -0.01654,-0.0941 -0.03657,-0.11002 -0.06683,-0.22194 -0.05581,-0.33686 0.0018,-0.0988 0.0037,-0.19777 0.01137,-0.2964 0.01225,-0.13776 0.02696,-0.27624 0.0646,-0.41123 0.04101,-0.13493 0.09343,-0.26712 0.149862,-0.39811 0.02925,-0.0475 0.06738,-0.0989 0.105936,-0.14874 -0.01086,-0.0392 -0.02254,-0.0779 -0.02894,-0.12195 -0.0087,-0.0599 -0.0041,-0.0299 -0.01344,-0.0875 -0.02243,-0.11038 -0.06692,-0.21676 -0.08268,-0.32811 -0.02356,-0.12515 -0.05466,-0.25045 -0.04496,-0.37787 v -0.27671 c 0,-0.0144 0.0031,-0.0269 0.0036,-0.041 -0.05333,-0.0106 -0.14892,0.0164 -0.19482,0 -0.02468,-0.009 0.02468,-0.0282 0,-0.0366 v -0.001 c -0.02467,-0.008 -0.07,0 -0.104903,0 -0.04936,0 -0.518982,-10e-4 -0.523482,0 z m -0.419095,5.99733 c -0.0019,0.001 0.01597,-0.0319 0.01757,-0.0372 -0.0055,2.4e-4 -0.01347,-0.001 -0.01757,0 -0.02468,0.009 0,0.0248 0,0.0372 z m 0.307474,-0.68958 c 0.0031,0.005 0.0067,0.01 0.0067,0.0153 0,0.003 -0.03101,0.0694 -0.04031,0.0919 0.01891,-0.0515 0.03438,-0.0955 0.03359,-0.10718 z"
         inkscape:connector-curvature="0" />
      <path
         style="fill:#52220b;stroke:#371308;stroke-width:0.16500001;stroke-linecap:butt;stroke-linejoin:miter;stroke-miterlimit:4;stroke-dasharray:none;stroke-opacity:1;fill-opacity:1"
         d="m 97.508651,131.89858 c -0.05908,1.10809 -0.01419,1.19478 0.05111,1.05898 l -4.326585,1.41779 -0.05111,-1.05898 z"
         id="path4840"
         inkscape:connector-curvature="0"
         sodipodi:nodetypes="ccccc" />
      <path
         sodipodi:nodetypes="ccccc"
         inkscape:connector-curvature="0"
         id="path4842"
         d="m 101.12472,130.51834 c -0.0591,1.10809 0.0459,1.10273 0.0459,1.10273 l -3.610859,1.33649 -0.05111,-1.05898 z"
         style="fill:#52220b;stroke:#371308;stroke-width:0.16500001;stroke-linecap:butt;stroke-linejoin:miter;stroke-miterlimit:4;stroke-dasharray:none;stroke-opacity:1;fill-opacity:1" />
      <path
         style="fill:#52220b;stroke:#371308;stroke-width:0.17687894;stroke-linecap:butt;stroke-linejoin:miter;stroke-miterlimit:4;stroke-dasharray:none;stroke-opacity:1;fill-opacity:1"
         d="m 105.28012,129.1381 c -0.0679,1.10809 0.0528,1.10273 0.0528,1.10273 l -4.1495,1.33649 -0.0587,-1.05898 z"
         id="path4844"
         inkscape:connector-curvature="0"
         sodipodi:nodetypes="ccccc" />
      <path
         sodipodi:nodetypes="ccccc"
         inkscape:connector-curvature="0"
         id="path4846"
         d="m 109.77788,127.68276 c -0.0776,1.10809 0.0604,1.10273 0.0604,1.10273 l -4.50536,1.45534 -0.0528,-1.10273 z"
         style="fill:#52220b;stroke:#371308;stroke-width:0.18912737;stroke-linecap:butt;stroke-linejoin:miter;stroke-miterlimit:4;stroke-dasharray:none;stroke-opacity:1;fill-opacity:1" />
      <path
         style="fill:#52220b;stroke:#371308;stroke-width:0.18912737;stroke-linecap:butt;stroke-linejoin:miter;stroke-miterlimit:4;stroke-dasharray:none;stroke-opacity:1;fill-opacity:1"
         d="m 114.10446,126.26496 c -0.0776,1.10809 0.0604,1.10273 0.0604,1.10273 l -4.50536,1.45534 -0.0528,-1.10273 z"
         id="path4848"
         inkscape:connector-curvature="0"
         sodipodi:nodetypes="ccccc" />
      <path
         inkscape:connector-curvature="0"
         d="m 95.824948,133.70684 c -0.02468,0.0113 0.02468,0.0361 0,0.0469 -3.17e-4,1.3e-4 -0.0012,-1.4e-4 -0.0016,0 -0.0031,-0.0147 -0.09878,-0.0147 -0.101802,0 -4.8e-5,-2.6e-4 -0.0016,2.8e-4 -0.0016,0 h -0.104892 c -0.279165,0 0.03524,-0.0161 -0.104386,0.0469 -0.02469,0.0103 -0.08022,-0.0103 -0.104903,0 -0.0035,0.001 0,0.13056 0,0.14256 v 0.3299 c 0,0.0156 0.02468,0.0361 0,0.0469 -0.02468,0.0103 -0.07971,-0.0103 -0.104387,0 -0.02468,0.0113 0,0.032 0,0.0475 v 0.28307 c 0,0.11863 0.02566,0.005 -0.08733,0.0433 v 0.43045 0.46832 0.51033 0.52687 0.52962 0.52963 0.53031 0.5303 0.34573 c 0.02734,0.0137 0.06885,0.0226 0.08733,0.0393 0.0329,0.0297 0.17639,0.39522 0.20929,0.42494 0.02207,0.0199 -0.127083,-0.2087 -0.104903,-0.18871 0.01103,0.0103 -0.08101,0.0687 -0.19172,0.13638 v 0.177 c 0.149854,-0.0655 0.296623,-0.13137 0.296623,-0.1233 0.0097,0.0169 0.01359,0.017 0.02119,0.0289 -0.05352,0.0212 -0.191281,0.0647 -0.31781,0.10541 v 0.11498 0.53032 0.30372 c 0.168775,0.0625 0.351691,0.11977 0.37052,0.13224 0.0055,-0.0161 0.01865,-0.0496 0.02429,-0.0661 3.7e-4,0.004 0.0012,0.007 0.0026,0.0126 -0.0091,0.025 -0.01045,0.0303 -0.02015,0.0564 8.1e-4,0.001 0.02452,0.009 0.02377,0.009 v 0.28306 0.0475 c 0,0.0156 0.02468,0.0361 0,0.0469 -0.02469,0.0103 -0.07971,-0.0102 -0.104386,0 -0.02468,0.0114 0.02468,0.0361 0,0.0469 -0.02018,0.009 -0.05816,-9.2e-4 -0.08578,0 0.02504,-0.0521 0.09084,-0.22404 0.166915,-0.43251 -2.99e-4,0 -0.0068,-0.002 -0.0072,-0.002 -0.03625,0.10567 -0.14579,0.37759 -0.16123,0.43597 h 5.16e-4 c -0.0031,0.006 -0.01701,0.0458 -0.01809,0.0469 0,0.0335 0.01367,0.27108 0,0.28307 -0.02208,0.0199 -0.08222,0.0276 -0.104386,0.0475 -0.02839,0.0255 0.02866,0.17525 0,0.18872 -0.02054,0.009 -0.05961,-0.001 -0.08733,0 v 0.1343 0.47038 0.4401 0.43801 0.41874 0.0662 c 0,0.16614 -0.01801,0.30799 -0.04754,0.42907 0.01007,0.004 0.01685,0.005 0.02997,0.0114 0.02468,0.0114 -0.02468,0.0361 0,0.0469 0.02469,0.0103 0.08022,-0.0103 0.104904,0 0.02468,0.0113 -0.01566,0.0342 0,0.0475 0.02184,0.0196 0.08064,0.0273 0.103352,0.0469 0.08949,-0.097 0.209702,-0.18018 0.366903,-0.23484 0.07634,-0.0266 0.150248,-0.0614 0.230994,-0.0613 0.05333,-2e-4 0.106361,-5e-4 0.15968,-0.001 0.04523,-9.9e-4 0.09082,-0.002 0.135909,-0.006 0.01844,-0.002 0.06813,-0.009 0.07131,-0.006 0.0536,-0.026 0.08445,-0.0515 0.121957,-0.0778 0.0015,-0.0344 0.0016,-0.069 0.0036,-0.10327 0.01023,-0.14634 0.02358,-0.29192 0.04754,-0.43664 0.01684,-0.0995 0.02855,-0.17758 0.02015,-0.28927 v -0.36639 h -5.29e-4 c 0,-0.17251 0.02699,-0.31647 0.06976,-0.43803 -0.0048,-0.0239 -0.01037,-0.0481 -0.01447,-0.0723 -0.02101,-0.12179 -0.06232,-0.24001 -0.06201,-0.36503 -0.0029,-0.0563 -0.0048,-0.11234 -0.01705,-0.16735 -0.02558,-0.13187 -0.0666,-0.26304 -0.05839,-0.39946 v -0.32919 c 0,-0.2051 0.03715,-0.37169 0.0956,-0.50483 -0.07464,-0.1589 -0.106589,-0.37581 -0.06408,-0.64808 0.01231,-0.0789 0.02606,-0.15702 0.04341,-0.23485 0.02346,-0.11134 0.04188,-0.21484 0.04858,-0.33266 0.01508,-0.11472 0.04288,-0.22807 0.04547,-0.3423 0.0033,-0.17314 0.0072,-0.34648 0.01912,-0.51927 0.01329,-0.17179 0.02978,-0.3437 0.06873,-0.51172 0.002,-0.009 0.0046,-0.0148 0.0067,-0.024 -0.087,-0.13048 -0.179119,-0.25882 -0.188619,-0.42494 -0.0047,-0.0393 -0.0081,-0.0795 -0.01654,-0.11851 -0.03657,-0.13856 -0.06683,-0.27951 -0.05581,-0.42424 0.0018,-0.12444 0.0037,-0.24908 0.01137,-0.37329 0.01225,-0.1735 0.02696,-0.34791 0.0646,-0.51791 0.04101,-0.16994 0.09343,-0.33641 0.149862,-0.50138 0.02925,-0.0598 0.06738,-0.12456 0.105936,-0.18733 -0.01086,-0.0493 -0.02254,-0.0982 -0.02894,-0.15358 -0.0087,-0.0755 -0.0041,-0.0376 -0.01344,-0.11021 -0.02243,-0.13901 -0.06692,-0.27298 -0.08268,-0.41322 -0.02356,-0.15762 -0.05466,-0.31542 -0.04496,-0.4759 v -0.34849 c 0,-0.0182 0.0031,-0.0338 0.0036,-0.0516 -0.05333,-0.0133 -0.14892,0.0206 -0.19482,0 -0.02468,-0.0114 0.02468,-0.0355 0,-0.0461 v -0.001 c -0.02467,-0.0103 -0.07,0 -0.104903,0 -0.04936,0 -0.518982,-10e-4 -0.523482,0 z m -0.419095,7.55311 c -0.0019,0.001 0.01597,-0.0402 0.01757,-0.0469 -0.0055,3e-4 -0.01347,-0.001 -0.01757,0 -0.02468,0.0114 0,0.0313 0,0.0469 z m 0.307474,-0.86846 c 0.0031,0.006 0.0067,0.0126 0.0067,0.0193 0,0.004 -0.03101,0.0874 -0.04031,0.11574 0.01891,-0.0648 0.03438,-0.12028 0.03359,-0.13499 z"
         style="fill:#280b0b;fill-opacity:0.70980392;stroke:none;stroke-width:0.39665228px;stroke-linecap:butt;stroke-linejoin:miter;stroke-opacity:1"
         id="path4918" />
      <path
         id="path4920"
         style="fill:#280b0b;fill-opacity:0.70980392;stroke:none;stroke-width:0.39665228px;stroke-linecap:butt;stroke-linejoin:miter;stroke-opacity:1"
         d="m 113.34065,127.84586 c -0.0247,0.0113 0.0247,0.0361 0,0.0469 -3.2e-4,1.3e-4 -10e-4,-1.4e-4 -0.002,0 -0.003,-0.0147 -0.0988,-0.0147 -0.1018,0 -5e-5,-2.6e-4 -0.002,2.8e-4 -0.002,0 h -0.10489 c -0.27917,0 0.0352,-0.0161 -0.10439,0.0469 -0.0247,0.0103 -0.0802,-0.0103 -0.1049,0 -0.004,10e-4 0,0.13056 0,0.14256 v 0.3299 c 0,0.0156 0.0247,0.0361 0,0.0469 -0.0247,0.0103 -0.0797,-0.0103 -0.10439,0 -0.0247,0.0113 0,0.032 0,0.0475 v 0.28307 c 0,0.11863 0.0257,0.005 -0.0873,0.0433 v 0.43045 0.46832 0.51033 0.52687 0.52962 0.52963 0.53031 0.5303 0.34573 c 0.0273,0.0137 0.0689,0.0226 0.0873,0.0393 0.0329,0.0297 0.17639,0.39522 0.20929,0.42494 0.0221,0.0199 -0.12708,-0.2087 -0.1049,-0.18871 0.011,0.0103 -0.081,0.0687 -0.19172,0.13638 v 0.177 c 0.14985,-0.0655 0.29662,-0.13137 0.29662,-0.1233 0.01,0.0169 0.0136,0.017 0.0212,0.0289 -0.0535,0.0212 -0.19128,0.0647 -0.31781,0.10541 v 0.11498 0.53032 0.30372 c 0.16878,0.0625 0.35169,0.11977 0.37052,0.13224 0.005,-0.0161 0.0186,-0.0496 0.0243,-0.0661 3.7e-4,0.004 0.001,0.007 0.003,0.0126 -0.009,0.025 -0.0105,0.0303 -0.0202,0.0564 8.1e-4,0.001 0.0245,0.009 0.0238,0.009 v 0.28306 0.0475 c 0,0.0156 0.0247,0.0361 0,0.0469 -0.0247,0.0103 -0.0797,-0.0102 -0.10439,0 -0.0247,0.0114 0.0247,0.0361 0,0.0469 -0.0202,0.009 -0.0582,-9.2e-4 -0.0858,0 0.025,-0.0521 0.0908,-0.22404 0.16692,-0.43251 -3e-4,0 -0.007,-0.002 -0.007,-0.002 -0.0362,0.10567 -0.14579,0.37759 -0.16123,0.43597 h 5.2e-4 c -0.003,0.006 -0.017,0.0458 -0.0181,0.0469 0,0.0335 0.0137,0.27108 0,0.28307 -0.0221,0.0199 -0.0822,0.0276 -0.10439,0.0475 -0.0284,0.0255 0.0287,0.17525 0,0.18872 -0.0205,0.009 -0.0596,-0.001 -0.0873,0 v 0.1343 0.47038 0.4401 0.43801 0.41874 0.0662 c 0,0.16614 -0.018,0.30799 -0.0475,0.42907 0.0101,0.004 0.0169,0.005 0.03,0.0114 0.0247,0.0114 -0.0247,0.0361 0,0.0469 0.0247,0.0103 0.0802,-0.0103 0.1049,0 0.0247,0.0113 -0.0157,0.0342 0,0.0475 0.0218,0.0196 0.0806,0.0273 0.10336,0.0469 0.0895,-0.097 0.2097,-0.18018 0.3669,-0.23484 0.0763,-0.0266 0.15025,-0.0614 0.23099,-0.0613 0.0533,-2e-4 0.10636,-5e-4 0.15968,-0.001 0.0452,-9.9e-4 0.0908,-0.002 0.13591,-0.006 0.0184,-0.002 0.0681,-0.009 0.0713,-0.006 0.0536,-0.026 0.0845,-0.0515 0.12196,-0.0778 0.002,-0.0344 0.002,-0.069 0.004,-0.10327 0.0102,-0.14634 0.0236,-0.29192 0.0475,-0.43664 0.0168,-0.0995 0.0285,-0.17758 0.0202,-0.28927 v -0.36639 h -5.3e-4 c 0,-0.17251 0.027,-0.31647 0.0698,-0.43803 -0.005,-0.0239 -0.0104,-0.0481 -0.0145,-0.0723 -0.021,-0.12179 -0.0623,-0.24001 -0.062,-0.36503 -0.003,-0.0563 -0.005,-0.11234 -0.017,-0.16735 -0.0256,-0.13187 -0.0666,-0.26304 -0.0584,-0.39946 v -0.32919 c 0,-0.2051 0.0371,-0.37169 0.0956,-0.50483 -0.0746,-0.1589 -0.10659,-0.37581 -0.0641,-0.64808 0.0123,-0.0789 0.0261,-0.15702 0.0434,-0.23485 0.0235,-0.11134 0.0419,-0.21484 0.0486,-0.33266 0.0151,-0.11472 0.0429,-0.22807 0.0455,-0.3423 0.003,-0.17314 0.007,-0.34648 0.0191,-0.51927 0.0133,-0.17179 0.0298,-0.3437 0.0687,-0.51172 0.002,-0.009 0.005,-0.0148 0.007,-0.024 -0.087,-0.13048 -0.17912,-0.25882 -0.18862,-0.42494 -0.005,-0.0393 -0.008,-0.0795 -0.0165,-0.11851 -0.0366,-0.13856 -0.0668,-0.27951 -0.0558,-0.42424 0.002,-0.12444 0.004,-0.24908 0.0114,-0.37329 0.0122,-0.1735 0.027,-0.34791 0.0646,-0.51791 0.041,-0.16994 0.0934,-0.33641 0.14986,-0.50138 0.0292,-0.0598 0.0674,-0.12456 0.10594,-0.18733 -0.0109,-0.0493 -0.0225,-0.0982 -0.0289,-0.15358 -0.009,-0.0755 -0.004,-0.0376 -0.0134,-0.11021 -0.0224,-0.13901 -0.0669,-0.27298 -0.0827,-0.41322 -0.0236,-0.15762 -0.0547,-0.31542 -0.045,-0.4759 v -0.34849 c 0,-0.0182 0.003,-0.0338 0.004,-0.0516 -0.0533,-0.0133 -0.14892,0.0206 -0.19482,0 -0.0247,-0.0114 0.0247,-0.0355 0,-0.0461 v -10e-4 c -0.0247,-0.0103 -0.07,0 -0.1049,0 -0.0494,0 -0.51899,-0.001 -0.52349,0 z m -0.41909,7.55311 c -0.002,0.001 0.016,-0.0402 0.0176,-0.0469 -0.005,3e-4 -0.0135,-0.001 -0.0176,0 -0.0247,0.0114 0,0.0313 0,0.0469 z m 0.30747,-0.86846 c 0.003,0.006 0.007,0.0126 0.007,0.0193 0,0.004 -0.031,0.0874 -0.0403,0.11574 0.0189,-0.0648 0.0344,-0.12028 0.0336,-0.13499 z"
         inkscape:connector-curvature="0" />
      <path
         sodipodi:nodetypes="ccccc"
         inkscape:connector-curvature="0"
         id="path4922"
         d="m 93.233176,134.37535 -0.05111,-1.05898 -13.903738,-7.98532 0.01993,1.07147 z"
         style="fill:#52220b;fill-opacity:1;stroke:#371308;stroke-width:0.104;stroke-linecap:butt;stroke-linejoin:miter;stroke-miterlimit:4;stroke-dasharray:none;stroke-opacity:1" />
    </g>
  </g>
</svg>
